cpu.vcd
$version Generated by VerilatedVcd $end
$date Wed Dec 13 10:18:00 2023 $end
$timescale 1ps $end

 $scope module TOP $end
  $var wire 32 h a0 [31:0] $end
  $var wire  1 e clk $end
  $var wire  1 f rst $end
  $var wire  1 g trigger $end
  $scope module cpu $end
   $var wire  1 S ALUSrc_wire $end
   $var wire 32 Z ALU_o_wire [31:0] $end
   $var wire  4 R ALUctrl_wire [3:0] $end
   $var wire 32 j DATA_WIDTH [31:0] $end
   $var wire  1 X EQ_wire $end
   $var wire  1 X EQ_wire_i $end
   $var wire 32 Y Imm_o_wire [31:0] $end
   $var wire  1 U JRetSrc_wire $end
   $var wire 32 \ JRet_o_wire [31:0] $end
   $var wire  1 T JumpSrc_wire $end
   $var wire  1 ] MemType_wire $end
   $var wire  1 Q MemWrite_wire $end
   $var wire  1 O PCSrc_wire $end
   $var wire 32 & PC_out_wire [31:0] $end
   $var wire 32 [ PC_target [31:0] $end
   $var wire 32 $ RD1_wire [31:0] $end
   $var wire 32 % RD2_wire [31:0] $end
   $var wire  1 P ResultSrc_wire $end
   $var wire 32 V Result_wire [31:0] $end
   $var wire 32 W WD3_wire [31:0] $end
   $var wire 32 h a0 [31:0] $end
   $var wire  1 e clk $end
   $var wire 32 # instr_wire [31:0] $end
   $var wire  1 f rst $end
   $var wire  1 g trigger $end
   $scope module D $end
    $var wire  4 R ALUctrl [3:0] $end
    $var wire  1 S ALUsrc $end
    $var wire 32 j DATA_WIDTH [31:0] $end
    $var wire  1 X EQ $end
    $var wire  3 ^ ImmSrc_wire [2:0] $end
    $var wire 32 Y Imm_o [31:0] $end
    $var wire  1 U JRetSrc $end
    $var wire  1 T JumpSrc $end
    $var wire  1 ] MemType $end
    $var wire  1 Q MemWrite $end
    $var wire  1 O PCSrc $end
    $var wire 32 $ RD1 [31:0] $end
    $var wire 32 % RD2 [31:0] $end
    $var wire  1 _ RegWrite_wire $end
    $var wire  1 P ResultSrc $end
    $var wire 32 W WD3 [31:0] $end
    $var wire 32 k WIDTH [31:0] $end
    $var wire 32 h a0 [31:0] $end
    $var wire  1 e clk $end
    $var wire 32 # instr [31:0] $end
    $scope module control $end
     $var wire  4 R ALUctrl [3:0] $end
     $var wire  1 S ALUsrc $end
     $var wire  1 X EQ $end
     $var wire  3 ^ ImmSrc [2:0] $end
     $var wire  1 U JRetSrc $end
     $var wire  1 T JumpSrc $end
     $var wire  1 ] MemType $end
     $var wire  1 Q MemWrite $end
     $var wire  1 O PCSrc $end
     $var wire  1 _ RegWrite $end
     $var wire  1 P ResultSrc $end
     $var wire  3 ( funct3 [2:0] $end
     $var wire  1 ) funct7 $end
     $var wire  7 ' opcode [6:0] $end
     $var wire  2 * opfunct7 [1:0] $end
     $scope module unnamedblk1 $end
      $var wire  7 ` Type_O [6:0] $end
     $upscope $end
    $upscope $end
    $scope module extend $end
     $var wire 32 j DATA_WIDTH [31:0] $end
     $var wire  3 ^ ImmSrc [2:0] $end
     $var wire 25 + Imm_i [31:7] $end
     $var wire 32 Y Imm_o [31:0] $end
    $upscope $end
    $scope module rf $end
     $var wire  5 , AD1 [4:0] $end
     $var wire  5 - AD2 [4:0] $end
     $var wire  5 . AD3 [4:0] $end
     $var wire 32 l ADDRESS_WIDTH [31:0] $end
     $var wire 32 j DATA_WIDTH [31:0] $end
     $var wire 32 $ RD1 [31:0] $end
     $var wire 32 % RD2 [31:0] $end
     $var wire 32 W WD3 [31:0] $end
     $var wire  1 _ WE3 $end
     $var wire 32 h a0 [31:0] $end
     $var wire  1 e clk $end
     $var wire 32 / registers[0] [31:0] $end
     $var wire 32 9 registers[10] [31:0] $end
     $var wire 32 : registers[11] [31:0] $end
     $var wire 32 ; registers[12] [31:0] $end
     $var wire 32 < registers[13] [31:0] $end
     $var wire 32 = registers[14] [31:0] $end
     $var wire 32 > registers[15] [31:0] $end
     $var wire 32 ? registers[16] [31:0] $end
     $var wire 32 @ registers[17] [31:0] $end
     $var wire 32 A registers[18] [31:0] $end
     $var wire 32 B registers[19] [31:0] $end
     $var wire 32 0 registers[1] [31:0] $end
     $var wire 32 C registers[20] [31:0] $end
     $var wire 32 D registers[21] [31:0] $end
     $var wire 32 E registers[22] [31:0] $end
     $var wire 32 F registers[23] [31:0] $end
     $var wire 32 G registers[24] [31:0] $end
     $var wire 32 H registers[25] [31:0] $end
     $var wire 32 I registers[26] [31:0] $end
     $var wire 32 J registers[27] [31:0] $end
     $var wire 32 K registers[28] [31:0] $end
     $var wire 32 L registers[29] [31:0] $end
     $var wire 32 1 registers[2] [31:0] $end
     $var wire 32 M registers[30] [31:0] $end
     $var wire 32 N registers[31] [31:0] $end
     $var wire 32 2 registers[3] [31:0] $end
     $var wire 32 3 registers[4] [31:0] $end
     $var wire 32 4 registers[5] [31:0] $end
     $var wire 32 5 registers[6] [31:0] $end
     $var wire 32 6 registers[7] [31:0] $end
     $var wire 32 7 registers[8] [31:0] $end
     $var wire 32 8 registers[9] [31:0] $end
    $upscope $end
   $upscope $end
   $scope module E $end
    $var wire 32 Z ALU_o [31:0] $end
    $var wire  4 R ALUctrl [3:0] $end
    $var wire 32 a ALUop2 [31:0] $end
    $var wire  1 S ALUsrc $end
    $var wire 32 j DATA_WIDTH [31:0] $end
    $var wire  1 X EQ $end
    $var wire 32 Y Imm_o [31:0] $end
    $var wire 32 $ RD1 [31:0] $end
    $var wire 32 % RD2 [31:0] $end
    $scope module alu_top $end
     $var wire  4 R ALUControl [3:0] $end
     $var wire 32 Z ALUResult [31:0] $end
     $var wire 32 j DATA_WIDTH [31:0] $end
     $var wire 32 $ SrcA [31:0] $end
     $var wire 32 a SrcB [31:0] $end
     $var wire  1 X Zero $end
    $upscope $end
   $upscope $end
   $scope module IM $end
    $var wire 32 j DATA_WIDTH [31:0] $end
    $var wire 32 \ JRet_o [31:0] $end
    $var wire  1 T JumpSrc $end
    $var wire  1 O PCSrc $end
    $var wire 32 d PC_next [31:0] $end
    $var wire 32 & PC_out [31:0] $end
    $var wire 32 W WD3 [31:0] $end
    $var wire  1 e clk $end
    $var wire 32 c inc_pc [31:0] $end
    $var wire 32 # instr [31:0] $end
    $var wire 32 b next [31:0] $end
    $var wire 32 & pc_wire [31:0] $end
    $var wire 32 V result [31:0] $end
    $var wire  1 f rst $end
    $var wire  1 g trigger $end
    $scope module InstructionMem $end
     $var wire 32 j ADDRESS_WIDTH [31:0] $end
     $var wire 32 m DATA_WIDTH [31:0] $end
     $var wire 32 & addr [31:0] $end
     $var wire 32 # dout [31:0] $end
    $upscope $end
    $scope module pc_reg $end
     $var wire 32 & PC [31:0] $end
     $var wire 32 b PCNext [31:0] $end
     $var wire 32 j WIDTH [31:0] $end
     $var wire  1 e clk $end
     $var wire  1 f rst $end
    $upscope $end
   $upscope $end
   $scope module dm_top $end
    $var wire 32 Z ALU_o [31:0] $end
    $var wire 32 j DATA_WIDTH [31:0] $end
    $var wire  1 ] MemType $end
    $var wire  1 Q MemWrite $end
    $var wire 32 i RD_wire [31:0] $end
    $var wire 32 V Result [31:0] $end
    $var wire  1 P ResultSrc $end
    $var wire 32 % WD [31:0] $end
    $var wire  1 e clk $end
    $scope module DataMem $end
     $var wire 32 Z A [31:0] $end
     $var wire 32 m DATA_WIDTH [31:0] $end
     $var wire  1 ] MemType $end
     $var wire 32 i RD [31:0] $end
     $var wire 32 % WD [31:0] $end
     $var wire  1 Q WE $end
     $var wire 32 j WIDTH [31:0] $end
     $var wire  1 e clk $end
    $upscope $end
   $upscope $end
  $upscope $end
 $upscope $end
$enddefinitions $end


#0
b00000000000000000000000000000000 #
b00000000000000000000000000000000 $
b00000000000000000000000000000000 %
b00000000000000000000000000000000 &
b0000000 '
b000 (
0)
b00 *
b0000000000000000000000000 +
b00000 ,
b00000 -
b00000 .
b00000000000000000000000000000000 /
b00000000000000000000000000000000 0
b00000000000000000000000000000000 1
b00000000000000000000000000000000 2
b00000000000000000000000000000000 3
b00000000000000000000000000000000 4
b00000000000000000000000000000000 5
b00000000000000000000000000000000 6
b00000000000000000000000000000000 7
b00000000000000000000000000000000 8
b00000000000000000000000000000000 9
b00000000000000000000000000000000 :
b00000000000000000000000000000000 ;
b00000000000000000000000000000000 <
b00000000000000000000000000000000 =
b00000000000000000000000000000000 >
b00000000000000000000000000000000 ?
b00000000000000000000000000000000 @
b00000000000000000000000000000000 A
b00000000000000000000000000000000 B
b00000000000000000000000000000000 C
b00000000000000000000000000000000 D
b00000000000000000000000000000000 E
b00000000000000000000000000000000 F
b00000000000000000000000000000000 G
b00000000000000000000000000000000 H
b00000000000000000000000000000000 I
b00000000000000000000000000000000 J
b00000000000000000000000000000000 K
b00000000000000000000000000000000 L
b00000000000000000000000000000000 M
b00000000000000000000000000000000 N
0O
0P
0Q
b0000 R
0S
0T
0U
b00000000000000000000000000000000 V
b00000000000000000000000000000000 W
0X
b00000000000000000000000000000000 Y
b00000000000000000000000000000000 Z
b00000000000000000000000000000000 [
b00000000000000000000000000000000 \
0]
b000 ^
0_
b0000000 `
b00000000000000000000000000000000 a
b00000000000000000000000000000000 b
b00000000000000000000000000000000 c
b00000000000000000000000000000000 d
0e
0f
0g
b00000000000000000000000000000000 h
b00000000000000000000000000000000 i
b00000000000000000000000000100000 j
b00000000000000000000000000000011 k
b00000000000000000000000000000101 l
b00000000000000000000000000001000 m
#1
b00000001000000000000000011101111 #
b1101111 '
b10 *
b0000000100000000000000001 +
b10000 -
b00001 .
1O
b0010 R
1S
1T
b00000000000000000000000000010000 V
b00000000000000000000000000000100 W
b00000000000000000000000000010000 Y
b00000000000000000000000000010000 Z
b00000000000000000000000000010000 [
b00000000000000000000000000010000 \
b100 ^
1_
b1101111 `
b00000000000000000000000000010000 a
b10111111110000000000000000000000 b
b00000000000000000000000000000100 c
b00000000000000000000000000010000 d
1e
#2
0e
1g
#3
b10111111110000000000000000000000 &
b00000000000000000000000000000100 0
b10111111110000000000000000000100 W
b10111111110000000000000000010000 [
b10111111110000000000000000010000 \
b10111111110000000000000000010000 b
b10111111110000000000000000000100 c
b10111111110000000000000000010000 d
1e
#4
0e
#5
b00010000000000000000010110010011 #
b10111111110000000000000000010000 &
b0010011 '
b00 *
b0001000000000000000001011 +
b00000 -
b01011 .
b10111111110000000000000000000100 0
0O
b0000 R
0T
b00000000000000000000000100000000 V
b00000000000000000000000100000000 W
b00000000000000000000000100000000 Y
b00000000000000000000000100000000 Z
b10111111110000000000000100010000 [
b10111111110000000000000100010000 \
b000 ^
b0010011 `
b00000000000000000000000100000000 a
b10111111110000000000000000010100 b
b10111111110000000000000000010100 c
b10111111110000000000000000010100 d
1e
#6
0e
#7
b11111111111101011000010110010011 #
b00000000000000000000000100000000 $
b10111111110000000000000000010100 &
1)
b01 *
b1111111111110101100001011 +
b01011 ,
b11111 -
b00000000000000000000000100000000 :
b00000000000000000000000011111111 V
b00000000000000000000000011111111 W
b11111111111111111111111111111111 Y
b00000000000000000000000011111111 Z
b10111111110000000000000000010011 [
b10111111110000000000000000010011 \
b11111111111111111111111111111111 a
b10111111110000000000000000011000 b
b10111111110000000000000000011000 c
b10111111110000000000000000011000 d
1e
#8
0e
#9
b00010000000001011000000000100011 #
b00000000000000000000000011111111 $
b10111111110000000000000000011000 &
b0100011 '
0)
b10 *
b0001000000000101100000000 +
b00000 -
b00000 .
b00000000000000000000000011111111 :
1Q
b0110 R
b00000000000000000000000111111111 V
b00000000000000000000000111111111 W
b00000000000000000000000100000000 Y
b00000000000000000000000111111111 Z
b10111111110000000000000100011000 [
b10111111110000000000000100011000 \
1]
b010 ^
0_
b0100011 `
b00000000000000000000000100000000 a
b10111111110000000000000000011100 b
b10111111110000000000000000011100 c
b10111111110000000000000000011100 d
1e
#10
0e
#11
b11111110000001011001110011100011 #
b10111111110000000000000000011100 &
b1100011 '
b001 (
1)
b11 *
b1111111000000101100111001 +
b11001 .
1O
0Q
b0001 R
0S
b00000000000000000000000011111111 V
b00000000000000000000000011111111 W
b11111111111111111111111111111000 Y
b00000000000000000000000011111111 Z
b10111111110000000000000000010100 [
b10111111110000000000000000010100 \
0]
b011 ^
b1100011 `
b00000000000000000000000000000000 a
b10111111110000000000000000010100 b
b10111111110000000000000000100000 c
b10111111110000000000000000010100 d
1e
#12
0e
#13
b11111111111101011000010110010011 #
b10111111110000000000000000010100 &
b0010011 '
b000 (
b01 *
b1111111111110101100001011 +
b11111 -
b01011 .
0O
b0000 R
1S
b00000000000000000000000011111110 V
b00000000000000000000000011111110 W
b11111111111111111111111111111111 Y
b00000000000000000000000011111110 Z
b10111111110000000000000000010011 [
b10111111110000000000000000010011 \
b000 ^
1_
b0010011 `
b11111111111111111111111111111111 a
b10111111110000000000000000011000 b
b10111111110000000000000000011000 c
b10111111110000000000000000011000 d
1e
#14
0e
#15
b00010000000001011000000000100011 #
b00000000000000000000000011111110 $
b10111111110000000000000000011000 &
b0100011 '
0)
b10 *
b0001000000000101100000000 +
b00000 -
b00000 .
b00000000000000000000000011111110 :
1Q
b0110 R
b00000000000000000000000111111110 V
b00000000000000000000000111111110 W
b00000000000000000000000100000000 Y
b00000000000000000000000111111110 Z
b10111111110000000000000100011000 [
b10111111110000000000000100011000 \
1]
b010 ^
0_
b0100011 `
b00000000000000000000000100000000 a
b10111111110000000000000000011100 b
b10111111110000000000000000011100 c
b10111111110000000000000000011100 d
1e
#16
0e
#17
b11111110000001011001110011100011 #
b10111111110000000000000000011100 &
b1100011 '
b001 (
1)
b11 *
b1111111000000101100111001 +
b11001 .
1O
0Q
b0001 R
0S
b00000000000000000000000011111110 V
b00000000000000000000000011111110 W
b11111111111111111111111111111000 Y
b00000000000000000000000011111110 Z
b10111111110000000000000000010100 [
b10111111110000000000000000010100 \
0]
b011 ^
b1100011 `
b00000000000000000000000000000000 a
b10111111110000000000000000010100 b
b10111111110000000000000000100000 c
b10111111110000000000000000010100 d
1e
#18
0e
#19
b11111111111101011000010110010011 #
b10111111110000000000000000010100 &
b0010011 '
b000 (
b01 *
b1111111111110101100001011 +
b11111 -
b01011 .
0O
b0000 R
1S
b00000000000000000000000011111101 V
b00000000000000000000000011111101 W
b11111111111111111111111111111111 Y
b00000000000000000000000011111101 Z
b10111111110000000000000000010011 [
b10111111110000000000000000010011 \
b000 ^
1_
b0010011 `
b11111111111111111111111111111111 a
b10111111110000000000000000011000 b
b10111111110000000000000000011000 c
b10111111110000000000000000011000 d
1e
#20
0e
#21
b00010000000001011000000000100011 #
b00000000000000000000000011111101 $
b10111111110000000000000000011000 &
b0100011 '
0)
b10 *
b0001000000000101100000000 +
b00000 -
b00000 .
b00000000000000000000000011111101 :
1Q
b0110 R
b00000000000000000000000111111101 V
b00000000000000000000000111111101 W
b00000000000000000000000100000000 Y
b00000000000000000000000111111101 Z
b10111111110000000000000100011000 [
b10111111110000000000000100011000 \
1]
b010 ^
0_
b0100011 `
b00000000000000000000000100000000 a
b10111111110000000000000000011100 b
b10111111110000000000000000011100 c
b10111111110000000000000000011100 d
1e
#22
0e
#23
b11111110000001011001110011100011 #
b10111111110000000000000000011100 &
b1100011 '
b001 (
1)
b11 *
b1111111000000101100111001 +
b11001 .
1O
0Q
b0001 R
0S
b00000000000000000000000011111101 V
b00000000000000000000000011111101 W
b11111111111111111111111111111000 Y
b00000000000000000000000011111101 Z
b10111111110000000000000000010100 [
b10111111110000000000000000010100 \
0]
b011 ^
b1100011 `
b00000000000000000000000000000000 a
b10111111110000000000000000010100 b
b10111111110000000000000000100000 c
b10111111110000000000000000010100 d
1e
#24
0e
#25
b11111111111101011000010110010011 #
b10111111110000000000000000010100 &
b0010011 '
b000 (
b01 *
b1111111111110101100001011 +
b11111 -
b01011 .
0O
b0000 R
1S
b00000000000000000000000011111100 V
b00000000000000000000000011111100 W
b11111111111111111111111111111111 Y
b00000000000000000000000011111100 Z
b10111111110000000000000000010011 [
b10111111110000000000000000010011 \
b000 ^
1_
b0010011 `
b11111111111111111111111111111111 a
b10111111110000000000000000011000 b
b10111111110000000000000000011000 c
b10111111110000000000000000011000 d
1e
#26
0e
#27
b00010000000001011000000000100011 #
b00000000000000000000000011111100 $
b10111111110000000000000000011000 &
b0100011 '
0)
b10 *
b0001000000000101100000000 +
b00000 -
b00000 .
b00000000000000000000000011111100 :
1Q
b0110 R
b00000000000000000000000111111100 V
b00000000000000000000000111111100 W
b00000000000000000000000100000000 Y
b00000000000000000000000111111100 Z
b10111111110000000000000100011000 [
b10111111110000000000000100011000 \
1]
b010 ^
0_
b0100011 `
b00000000000000000000000100000000 a
b10111111110000000000000000011100 b
b10111111110000000000000000011100 c
b10111111110000000000000000011100 d
1e
#28
0e
#29
b11111110000001011001110011100011 #
b10111111110000000000000000011100 &
b1100011 '
b001 (
1)
b11 *
b1111111000000101100111001 +
b11001 .
1O
0Q
b0001 R
0S
b00000000000000000000000011111100 V
b00000000000000000000000011111100 W
b11111111111111111111111111111000 Y
b00000000000000000000000011111100 Z
b10111111110000000000000000010100 [
b10111111110000000000000000010100 \
0]
b011 ^
b1100011 `
b00000000000000000000000000000000 a
b10111111110000000000000000010100 b
b10111111110000000000000000100000 c
b10111111110000000000000000010100 d
1e
#30
0e
#31
b11111111111101011000010110010011 #
b10111111110000000000000000010100 &
b0010011 '
b000 (
b01 *
b1111111111110101100001011 +
b11111 -
b01011 .
0O
b0000 R
1S
b00000000000000000000000011111011 V
b00000000000000000000000011111011 W
b11111111111111111111111111111111 Y
b00000000000000000000000011111011 Z
b10111111110000000000000000010011 [
b10111111110000000000000000010011 \
b000 ^
1_
b0010011 `
b11111111111111111111111111111111 a
b10111111110000000000000000011000 b
b10111111110000000000000000011000 c
b10111111110000000000000000011000 d
1e
#32
0e
#33
b00010000000001011000000000100011 #
b00000000000000000000000011111011 $
b10111111110000000000000000011000 &
b0100011 '
0)
b10 *
b0001000000000101100000000 +
b00000 -
b00000 .
b00000000000000000000000011111011 :
1Q
b0110 R
b00000000000000000000000111111011 V
b00000000000000000000000111111011 W
b00000000000000000000000100000000 Y
b00000000000000000000000111111011 Z
b10111111110000000000000100011000 [
b10111111110000000000000100011000 \
1]
b010 ^
0_
b0100011 `
b00000000000000000000000100000000 a
b10111111110000000000000000011100 b
b10111111110000000000000000011100 c
b10111111110000000000000000011100 d
1e
#34
0e
#35
b11111110000001011001110011100011 #
b10111111110000000000000000011100 &
b1100011 '
b001 (
1)
b11 *
b1111111000000101100111001 +
b11001 .
1O
0Q
b0001 R
0S
b00000000000000000000000011111011 V
b00000000000000000000000011111011 W
b11111111111111111111111111111000 Y
b00000000000000000000000011111011 Z
b10111111110000000000000000010100 [
b10111111110000000000000000010100 \
0]
b011 ^
b1100011 `
b00000000000000000000000000000000 a
b10111111110000000000000000010100 b
b10111111110000000000000000100000 c
b10111111110000000000000000010100 d
1e
#36
0e
#37
b11111111111101011000010110010011 #
b10111111110000000000000000010100 &
b0010011 '
b000 (
b01 *
b1111111111110101100001011 +
b11111 -
b01011 .
0O
b0000 R
1S
b00000000000000000000000011111010 V
b00000000000000000000000011111010 W
b11111111111111111111111111111111 Y
b00000000000000000000000011111010 Z
b10111111110000000000000000010011 [
b10111111110000000000000000010011 \
b000 ^
1_
b0010011 `
b11111111111111111111111111111111 a
b10111111110000000000000000011000 b
b10111111110000000000000000011000 c
b10111111110000000000000000011000 d
1e
#38
0e
#39
b00010000000001011000000000100011 #
b00000000000000000000000011111010 $
b10111111110000000000000000011000 &
b0100011 '
0)
b10 *
b0001000000000101100000000 +
b00000 -
b00000 .
b00000000000000000000000011111010 :
1Q
b0110 R
b00000000000000000000000111111010 V
b00000000000000000000000111111010 W
b00000000000000000000000100000000 Y
b00000000000000000000000111111010 Z
b10111111110000000000000100011000 [
b10111111110000000000000100011000 \
1]
b010 ^
0_
b0100011 `
b00000000000000000000000100000000 a
b10111111110000000000000000011100 b
b10111111110000000000000000011100 c
b10111111110000000000000000011100 d
1e
#40
0e
#41
b11111110000001011001110011100011 #
b10111111110000000000000000011100 &
b1100011 '
b001 (
1)
b11 *
b1111111000000101100111001 +
b11001 .
1O
0Q
b0001 R
0S
b00000000000000000000000011111010 V
b00000000000000000000000011111010 W
b11111111111111111111111111111000 Y
b00000000000000000000000011111010 Z
b10111111110000000000000000010100 [
b10111111110000000000000000010100 \
0]
b011 ^
b1100011 `
b00000000000000000000000000000000 a
b10111111110000000000000000010100 b
b10111111110000000000000000100000 c
b10111111110000000000000000010100 d
1e
#42
0e
#43
b11111111111101011000010110010011 #
b10111111110000000000000000010100 &
b0010011 '
b000 (
b01 *
b1111111111110101100001011 +
b11111 -
b01011 .
0O
b0000 R
1S
b00000000000000000000000011111001 V
b00000000000000000000000011111001 W
b11111111111111111111111111111111 Y
b00000000000000000000000011111001 Z
b10111111110000000000000000010011 [
b10111111110000000000000000010011 \
b000 ^
1_
b0010011 `
b11111111111111111111111111111111 a
b10111111110000000000000000011000 b
b10111111110000000000000000011000 c
b10111111110000000000000000011000 d
1e
#44
0e
#45
b00010000000001011000000000100011 #
b00000000000000000000000011111001 $
b10111111110000000000000000011000 &
b0100011 '
0)
b10 *
b0001000000000101100000000 +
b00000 -
b00000 .
b00000000000000000000000011111001 :
1Q
b0110 R
b00000000000000000000000111111001 V
b00000000000000000000000111111001 W
b00000000000000000000000100000000 Y
b00000000000000000000000111111001 Z
b10111111110000000000000100011000 [
b10111111110000000000000100011000 \
1]
b010 ^
0_
b0100011 `
b00000000000000000000000100000000 a
b10111111110000000000000000011100 b
b10111111110000000000000000011100 c
b10111111110000000000000000011100 d
1e
#46
0e
#47
b11111110000001011001110011100011 #
b10111111110000000000000000011100 &
b1100011 '
b001 (
1)
b11 *
b1111111000000101100111001 +
b11001 .
1O
0Q
b0001 R
0S
b00000000000000000000000011111001 V
b00000000000000000000000011111001 W
b11111111111111111111111111111000 Y
b00000000000000000000000011111001 Z
b10111111110000000000000000010100 [
b10111111110000000000000000010100 \
0]
b011 ^
b1100011 `
b00000000000000000000000000000000 a
b10111111110000000000000000010100 b
b10111111110000000000000000100000 c
b10111111110000000000000000010100 d
1e
#48
0e
#49
b11111111111101011000010110010011 #
b10111111110000000000000000010100 &
b0010011 '
b000 (
b01 *
b1111111111110101100001011 +
b11111 -
b01011 .
0O
b0000 R
1S
b00000000000000000000000011111000 V
b00000000000000000000000011111000 W
b11111111111111111111111111111111 Y
b00000000000000000000000011111000 Z
b10111111110000000000000000010011 [
b10111111110000000000000000010011 \
b000 ^
1_
b0010011 `
b11111111111111111111111111111111 a
b10111111110000000000000000011000 b
b10111111110000000000000000011000 c
b10111111110000000000000000011000 d
1e
#50
0e
#51
b00010000000001011000000000100011 #
b00000000000000000000000011111000 $
b10111111110000000000000000011000 &
b0100011 '
0)
b10 *
b0001000000000101100000000 +
b00000 -
b00000 .
b00000000000000000000000011111000 :
1Q
b0110 R
b00000000000000000000000111111000 V
b00000000000000000000000111111000 W
b00000000000000000000000100000000 Y
b00000000000000000000000111111000 Z
b10111111110000000000000100011000 [
b10111111110000000000000100011000 \
1]
b010 ^
0_
b0100011 `
b00000000000000000000000100000000 a
b10111111110000000000000000011100 b
b10111111110000000000000000011100 c
b10111111110000000000000000011100 d
1e
#52
0e
#53
b11111110000001011001110011100011 #
b10111111110000000000000000011100 &
b1100011 '
b001 (
1)
b11 *
b1111111000000101100111001 +
b11001 .
1O
0Q
b0001 R
0S
b00000000000000000000000011111000 V
b00000000000000000000000011111000 W
b11111111111111111111111111111000 Y
b00000000000000000000000011111000 Z
b10111111110000000000000000010100 [
b10111111110000000000000000010100 \
0]
b011 ^
b1100011 `
b00000000000000000000000000000000 a
b10111111110000000000000000010100 b
b10111111110000000000000000100000 c
b10111111110000000000000000010100 d
1e
#54
0e
#55
b11111111111101011000010110010011 #
b10111111110000000000000000010100 &
b0010011 '
b000 (
b01 *
b1111111111110101100001011 +
b11111 -
b01011 .
0O
b0000 R
1S
b00000000000000000000000011110111 V
b00000000000000000000000011110111 W
b11111111111111111111111111111111 Y
b00000000000000000000000011110111 Z
b10111111110000000000000000010011 [
b10111111110000000000000000010011 \
b000 ^
1_
b0010011 `
b11111111111111111111111111111111 a
b10111111110000000000000000011000 b
b10111111110000000000000000011000 c
b10111111110000000000000000011000 d
1e
#56
0e
#57
b00010000000001011000000000100011 #
b00000000000000000000000011110111 $
b10111111110000000000000000011000 &
b0100011 '
0)
b10 *
b0001000000000101100000000 +
b00000 -
b00000 .
b00000000000000000000000011110111 :
1Q
b0110 R
b00000000000000000000000111110111 V
b00000000000000000000000111110111 W
b00000000000000000000000100000000 Y
b00000000000000000000000111110111 Z
b10111111110000000000000100011000 [
b10111111110000000000000100011000 \
1]
b010 ^
0_
b0100011 `
b00000000000000000000000100000000 a
b10111111110000000000000000011100 b
b10111111110000000000000000011100 c
b10111111110000000000000000011100 d
1e
#58
0e
#59
b11111110000001011001110011100011 #
b10111111110000000000000000011100 &
b1100011 '
b001 (
1)
b11 *
b1111111000000101100111001 +
b11001 .
1O
0Q
b0001 R
0S
b00000000000000000000000011110111 V
b00000000000000000000000011110111 W
b11111111111111111111111111111000 Y
b00000000000000000000000011110111 Z
b10111111110000000000000000010100 [
b10111111110000000000000000010100 \
0]
b011 ^
b1100011 `
b00000000000000000000000000000000 a
b10111111110000000000000000010100 b
b10111111110000000000000000100000 c
b10111111110000000000000000010100 d
1e
#60
0e
#61
b11111111111101011000010110010011 #
b10111111110000000000000000010100 &
b0010011 '
b000 (
b01 *
b1111111111110101100001011 +
b11111 -
b01011 .
0O
b0000 R
1S
b00000000000000000000000011110110 V
b00000000000000000000000011110110 W
b11111111111111111111111111111111 Y
b00000000000000000000000011110110 Z
b10111111110000000000000000010011 [
b10111111110000000000000000010011 \
b000 ^
1_
b0010011 `
b11111111111111111111111111111111 a
b10111111110000000000000000011000 b
b10111111110000000000000000011000 c
b10111111110000000000000000011000 d
1e
#62
0e
#63
b00010000000001011000000000100011 #
b00000000000000000000000011110110 $
b10111111110000000000000000011000 &
b0100011 '
0)
b10 *
b0001000000000101100000000 +
b00000 -
b00000 .
b00000000000000000000000011110110 :
1Q
b0110 R
b00000000000000000000000111110110 V
b00000000000000000000000111110110 W
b00000000000000000000000100000000 Y
b00000000000000000000000111110110 Z
b10111111110000000000000100011000 [
b10111111110000000000000100011000 \
1]
b010 ^
0_
b0100011 `
b00000000000000000000000100000000 a
b10111111110000000000000000011100 b
b10111111110000000000000000011100 c
b10111111110000000000000000011100 d
1e
#64
0e
#65
b11111110000001011001110011100011 #
b10111111110000000000000000011100 &
b1100011 '
b001 (
1)
b11 *
b1111111000000101100111001 +
b11001 .
1O
0Q
b0001 R
0S
b00000000000000000000000011110110 V
b00000000000000000000000011110110 W
b11111111111111111111111111111000 Y
b00000000000000000000000011110110 Z
b10111111110000000000000000010100 [
b10111111110000000000000000010100 \
0]
b011 ^
b1100011 `
b00000000000000000000000000000000 a
b10111111110000000000000000010100 b
b10111111110000000000000000100000 c
b10111111110000000000000000010100 d
1e
#66
0e
#67
b11111111111101011000010110010011 #
b10111111110000000000000000010100 &
b0010011 '
b000 (
b01 *
b1111111111110101100001011 +
b11111 -
b01011 .
0O
b0000 R
1S
b00000000000000000000000011110101 V
b00000000000000000000000011110101 W
b11111111111111111111111111111111 Y
b00000000000000000000000011110101 Z
b10111111110000000000000000010011 [
b10111111110000000000000000010011 \
b000 ^
1_
b0010011 `
b11111111111111111111111111111111 a
b10111111110000000000000000011000 b
b10111111110000000000000000011000 c
b10111111110000000000000000011000 d
1e
#68
0e
#69
b00010000000001011000000000100011 #
b00000000000000000000000011110101 $
b10111111110000000000000000011000 &
b0100011 '
0)
b10 *
b0001000000000101100000000 +
b00000 -
b00000 .
b00000000000000000000000011110101 :
1Q
b0110 R
b00000000000000000000000111110101 V
b00000000000000000000000111110101 W
b00000000000000000000000100000000 Y
b00000000000000000000000111110101 Z
b10111111110000000000000100011000 [
b10111111110000000000000100011000 \
1]
b010 ^
0_
b0100011 `
b00000000000000000000000100000000 a
b10111111110000000000000000011100 b
b10111111110000000000000000011100 c
b10111111110000000000000000011100 d
1e
#70
0e
#71
b11111110000001011001110011100011 #
b10111111110000000000000000011100 &
b1100011 '
b001 (
1)
b11 *
b1111111000000101100111001 +
b11001 .
1O
0Q
b0001 R
0S
b00000000000000000000000011110101 V
b00000000000000000000000011110101 W
b11111111111111111111111111111000 Y
b00000000000000000000000011110101 Z
b10111111110000000000000000010100 [
b10111111110000000000000000010100 \
0]
b011 ^
b1100011 `
b00000000000000000000000000000000 a
b10111111110000000000000000010100 b
b10111111110000000000000000100000 c
b10111111110000000000000000010100 d
1e
#72
0e
#73
b11111111111101011000010110010011 #
b10111111110000000000000000010100 &
b0010011 '
b000 (
b01 *
b1111111111110101100001011 +
b11111 -
b01011 .
0O
b0000 R
1S
b00000000000000000000000011110100 V
b00000000000000000000000011110100 W
b11111111111111111111111111111111 Y
b00000000000000000000000011110100 Z
b10111111110000000000000000010011 [
b10111111110000000000000000010011 \
b000 ^
1_
b0010011 `
b11111111111111111111111111111111 a
b10111111110000000000000000011000 b
b10111111110000000000000000011000 c
b10111111110000000000000000011000 d
1e
#74
0e
#75
b00010000000001011000000000100011 #
b00000000000000000000000011110100 $
b10111111110000000000000000011000 &
b0100011 '
0)
b10 *
b0001000000000101100000000 +
b00000 -
b00000 .
b00000000000000000000000011110100 :
1Q
b0110 R
b00000000000000000000000111110100 V
b00000000000000000000000111110100 W
b00000000000000000000000100000000 Y
b00000000000000000000000111110100 Z
b10111111110000000000000100011000 [
b10111111110000000000000100011000 \
1]
b010 ^
0_
b0100011 `
b00000000000000000000000100000000 a
b10111111110000000000000000011100 b
b10111111110000000000000000011100 c
b10111111110000000000000000011100 d
1e
#76
0e
