cpu1.vcd
$version Generated by VerilatedVcd $end
$date Fri Dec  8 14:55:02 2023 $end
$timescale 1ps $end

 $scope module TOP $end
  $var wire 32 f a0 [31:0] $end
  $var wire  1 c clk $end
  $var wire  1 d rst $end
  $var wire  1 e trigger $end
  $scope module cpu1 $end
   $var wire  1 R ALUSrc_wire $end
   $var wire 32 Y ALU_o_wire [31:0] $end
   $var wire  4 Q ALUctrl_wire [3:0] $end
   $var wire 32 h DATA_WIDTH [31:0] $end
   $var wire  1 W EQ_wire $end
   $var wire 32 X Imm_o_wire [31:0] $end
   $var wire  1 T JRetSrc_wire $end
   $var wire 32 i JRet_o [31:0] $end
   $var wire 32 [ JRet_o_wire [31:0] $end
   $var wire  1 S JumpSrc_wire $end
   $var wire  1 P MemWrite_wire $end
   $var wire  1 N PCSrc_wire $end
   $var wire 32 & PC_out_wire [31:0] $end
   $var wire 32 Z PC_target [31:0] $end
   $var wire 32 $ RD1_wire [31:0] $end
   $var wire 32 % RD2_wire [31:0] $end
   $var wire  1 O ResultSrc_wire $end
   $var wire 32 U Result_wire [31:0] $end
   $var wire 32 V WD3_wire [31:0] $end
   $var wire 32 f a0 [31:0] $end
   $var wire  1 c clk $end
   $var wire 32 # instr_wire [31:0] $end
   $var wire  1 d rst $end
   $var wire  1 e trigger $end
   $scope module D $end
    $var wire  4 Q ALUctrl [3:0] $end
    $var wire  1 R ALUsrc $end
    $var wire 32 h DATA_WIDTH [31:0] $end
    $var wire  1 W EQ $end
    $var wire  3 \ ImmSrc_wire [2:0] $end
    $var wire 32 X Imm_o [31:0] $end
    $var wire  1 T JRetSrc $end
    $var wire  1 S JumpSrc $end
    $var wire  1 P MemWrite $end
    $var wire  1 N PCSrc $end
    $var wire 32 $ RD1 [31:0] $end
    $var wire 32 % RD2 [31:0] $end
    $var wire  1 ] RegWrite_wire $end
    $var wire  1 O ResultSrc $end
    $var wire 32 V WD3 [31:0] $end
    $var wire 32 j WIDTH [31:0] $end
    $var wire 32 f a0 [31:0] $end
    $var wire  1 c clk $end
    $var wire 32 # instr [31:0] $end
    $scope module control $end
     $var wire  4 Q ALUctrl [3:0] $end
     $var wire  1 R ALUsrc $end
     $var wire  1 W EQ $end
     $var wire  3 \ ImmSrc [2:0] $end
     $var wire  1 T JRetSrc $end
     $var wire  1 S JumpSrc $end
     $var wire  1 P MemWrite $end
     $var wire  1 N PCSrc $end
     $var wire  1 ] RegWrite $end
     $var wire  1 O ResultSrc $end
     $var wire  3 ( funct3 [2:0] $end
     $var wire  1 ) funct7 $end
     $var wire  7 ' opcode [6:0] $end
     $scope module unnamedblk1 $end
      $var wire  7 ^ Type_O [6:0] $end
     $upscope $end
    $upscope $end
    $scope module extend $end
     $var wire 32 h DATA_WIDTH [31:0] $end
     $var wire  3 \ ImmSrc [2:0] $end
     $var wire 25 * Imm_i [31:7] $end
     $var wire 32 X Imm_o [31:0] $end
    $upscope $end
    $scope module rf $end
     $var wire  5 + AD1 [4:0] $end
     $var wire  5 , AD2 [4:0] $end
     $var wire  5 - AD3 [4:0] $end
     $var wire 32 k ADDRESS_WIDTH [31:0] $end
     $var wire 32 h DATA_WIDTH [31:0] $end
     $var wire 32 $ RD1 [31:0] $end
     $var wire 32 % RD2 [31:0] $end
     $var wire 32 V WD3 [31:0] $end
     $var wire  1 ] WE3 $end
     $var wire 32 f a0 [31:0] $end
     $var wire  1 c clk $end
     $var wire 32 . registers[0] [31:0] $end
     $var wire 32 8 registers[10] [31:0] $end
     $var wire 32 9 registers[11] [31:0] $end
     $var wire 32 : registers[12] [31:0] $end
     $var wire 32 ; registers[13] [31:0] $end
     $var wire 32 < registers[14] [31:0] $end
     $var wire 32 = registers[15] [31:0] $end
     $var wire 32 > registers[16] [31:0] $end
     $var wire 32 ? registers[17] [31:0] $end
     $var wire 32 @ registers[18] [31:0] $end
     $var wire 32 A registers[19] [31:0] $end
     $var wire 32 / registers[1] [31:0] $end
     $var wire 32 B registers[20] [31:0] $end
     $var wire 32 C registers[21] [31:0] $end
     $var wire 32 D registers[22] [31:0] $end
     $var wire 32 E registers[23] [31:0] $end
     $var wire 32 F registers[24] [31:0] $end
     $var wire 32 G registers[25] [31:0] $end
     $var wire 32 H registers[26] [31:0] $end
     $var wire 32 I registers[27] [31:0] $end
     $var wire 32 J registers[28] [31:0] $end
     $var wire 32 K registers[29] [31:0] $end
     $var wire 32 0 registers[2] [31:0] $end
     $var wire 32 L registers[30] [31:0] $end
     $var wire 32 M registers[31] [31:0] $end
     $var wire 32 1 registers[3] [31:0] $end
     $var wire 32 2 registers[4] [31:0] $end
     $var wire 32 3 registers[5] [31:0] $end
     $var wire 32 4 registers[6] [31:0] $end
     $var wire 32 5 registers[7] [31:0] $end
     $var wire 32 6 registers[8] [31:0] $end
     $var wire 32 7 registers[9] [31:0] $end
    $upscope $end
   $upscope $end
   $scope module E $end
    $var wire 32 Y ALU_o [31:0] $end
    $var wire  4 Q ALUctrl [3:0] $end
    $var wire 32 _ ALUop2 [31:0] $end
    $var wire  1 R ALUsrc $end
    $var wire 32 h DATA_WIDTH [31:0] $end
    $var wire  1 W EQ $end
    $var wire 32 X Imm_o [31:0] $end
    $var wire 32 $ RD1 [31:0] $end
    $var wire 32 % RD2 [31:0] $end
    $scope module alu_top $end
     $var wire  4 Q ALUControl [3:0] $end
     $var wire 32 Y ALUResult [31:0] $end
     $var wire 32 h DATA_WIDTH [31:0] $end
     $var wire 32 $ SrcA [31:0] $end
     $var wire 32 _ SrcB [31:0] $end
     $var wire  1 W Zero $end
    $upscope $end
   $upscope $end
   $scope module IM $end
    $var wire 32 h DATA_WIDTH [31:0] $end
    $var wire 32 [ JRet_o [31:0] $end
    $var wire  1 S JumpSrc $end
    $var wire  1 N PCSrc $end
    $var wire 32 b PC_next [31:0] $end
    $var wire 32 & PC_out [31:0] $end
    $var wire 32 V WD3 [31:0] $end
    $var wire  1 c clk $end
    $var wire 32 a inc_pc [31:0] $end
    $var wire 32 # instr [31:0] $end
    $var wire 32 ` next [31:0] $end
    $var wire 32 & pc_wire [31:0] $end
    $var wire 32 U result [31:0] $end
    $var wire  1 d rst $end
    $var wire  1 e trigger $end
    $scope module InstructionMem $end
     $var wire 32 h ADDRESS_WIDTH [31:0] $end
     $var wire 32 l DATA_WIDTH [31:0] $end
     $var wire 32 & addr [31:0] $end
     $var wire 32 # dout [31:0] $end
    $upscope $end
    $scope module pc_reg $end
     $var wire 32 & PC [31:0] $end
     $var wire 32 ` PCNext [31:0] $end
     $var wire 32 h WIDTH [31:0] $end
     $var wire  1 c clk $end
     $var wire  1 d rst $end
    $upscope $end
   $upscope $end
   $scope module dm_top $end
    $var wire 32 Y ALU_o [31:0] $end
    $var wire 32 h DATA_WIDTH [31:0] $end
    $var wire  1 P MemWrite $end
    $var wire 32 g RD_wire [31:0] $end
    $var wire 32 U Result [31:0] $end
    $var wire  1 O ResultSrc $end
    $var wire 32 % WD [31:0] $end
    $var wire  1 c clk $end
    $scope module DataMem $end
     $var wire 32 Y A [31:0] $end
     $var wire 32 l DATA_WIDTH [31:0] $end
     $var wire 32 g RD [31:0] $end
     $var wire 32 % WD [31:0] $end
     $var wire  1 P WE $end
     $var wire 32 h WIDTH [31:0] $end
     $var wire  1 c clk $end
    $upscope $end
   $upscope $end
  $upscope $end
 $upscope $end
$enddefinitions $end


#0
b00000000000000000000000000000000 #
b00000000000000000000000000000000 $
b00000000000000000000000000000000 %
b00000000000000000000000000000000 &
b0000000 '
b000 (
0)
b0000000000000000000000000 *
b00000 +
b00000 ,
b00000 -
b00000000000000000000000000000000 .
b00000000000000000000000000000000 /
b00000000000000000000000000000000 0
b00000000000000000000000000000000 1
b00000000000000000000000000000000 2
b00000000000000000000000000000000 3
b00000000000000000000000000000000 4
b00000000000000000000000000000000 5
b00000000000000000000000000000000 6
b00000000000000000000000000000000 7
b00000000000000000000000000000000 8
b00000000000000000000000000000000 9
b00000000000000000000000000000000 :
b00000000000000000000000000000000 ;
b00000000000000000000000000000000 <
b00000000000000000000000000000000 =
b00000000000000000000000000000000 >
b00000000000000000000000000000000 ?
b00000000000000000000000000000000 @
b00000000000000000000000000000000 A
b00000000000000000000000000000000 B
b00000000000000000000000000000000 C
b00000000000000000000000000000000 D
b00000000000000000000000000000000 E
b00000000000000000000000000000000 F
b00000000000000000000000000000000 G
b00000000000000000000000000000000 H
b00000000000000000000000000000000 I
b00000000000000000000000000000000 J
b00000000000000000000000000000000 K
b00000000000000000000000000000000 L
b00000000000000000000000000000000 M
0N
0O
0P
b0000 Q
0R
0S
0T
b00000000000000000000000000000000 U
b00000000000000000000000000000000 V
0W
b00000000000000000000000000000000 X
b00000000000000000000000000000000 Y
b00000000000000000000000000000000 Z
b00000000000000000000000000000000 [
b000 \
0]
b0000000 ^
b00000000000000000000000000000000 _
b00000000000000000000000000000000 `
b00000000000000000000000000000000 a
b00000000000000000000000000000000 b
0c
0d
1e
b00000000000000000000000000000000 f
b00000000000000000000000000000000 g
b00000000000000000000000000100000 h
b00000000000000000000000000000000 i
b00000000000000000000000000000011 j
b00000000000000000000000000000101 k
b00000000000000000000000000001000 l
#1
b00001111111100000000001100010011 #
b0010011 '
b0000111111110000000000110 *
b11111 ,
b00110 -
1R
b00000000000000000000000011111111 U
b00000000000000000000000011111111 V
b00000000000000000000000011111111 X
b00000000000000000000000011111111 Y
b00000000000000000000000011111111 Z
b00000000000000000000000011111111 [
1]
b0010011 ^
b00000000000000000000000011111111 _
b00000000000000000000000000000100 `
b00000000000000000000000000000100 a
b00000000000000000000000000000100 b
1c
#2
0c
#3
b00000000000100000000001110010011 #
b00000000000000000000000000000100 &
b0000000000010000000000111 *
b00001 ,
b00111 -
b00000000000000000000000011111111 4
b00000000000000000000000000000001 U
b00000000000000000000000000000001 V
b00000000000000000000000000000001 X
b00000000000000000000000000000001 Y
b00000000000000000000000000000101 Z
b00000000000000000000000000000101 [
b00000000000000000000000000000001 _
b00000000000000000000000000001000 `
b00000000000000000000000000001000 a
b00000000000000000000000000001000 b
1c
#4
0c
#5
b00000000000000000000010100010011 #
b00000000000000000000000000001000 &
b0000000000000000000001010 *
b00000 ,
b01010 -
b00000000000000000000000000000001 5
b00000000000000000000000000000000 U
b00000000000000000000000000000000 V
1W
b00000000000000000000000000000000 X
b00000000000000000000000000000000 Y
b00000000000000000000000000001000 Z
b00000000000000000000000000001000 [
b00000000000000000000000000000000 _
b00000000000000000000000000001100 `
b00000000000000000000000000001100 a
b00000000000000000000000000001100 b
1c
#6
0c
#7
b00000000100000000000011000010011 #
b00000000000000000000000000001100 &
b0000000010000000000001100 *
b01000 ,
b01100 -
b00000000000000000000000000001000 U
b00000000000000000000000000001000 V
0W
b00000000000000000000000000001000 X
b00000000000000000000000000001000 Y
b00000000000000000000000000010100 Z
b00000000000000000000000000010100 [
b00000000000000000000000000001000 _
b00000000000000000000000000010000 `
b00000000000000000000000000010000 a
b00000000000000000000000000010000 b
1c
#8
0c
#9
b00000000000000000000010110010011 #
b00000000000000000000000000010000 &
b0000000000000000000001011 *
b00000 ,
b01011 -
b00000000000000000000000000001000 :
b00000000000000000000000000000000 U
b00000000000000000000000000000000 V
1W
b00000000000000000000000000000000 X
b00000000000000000000000000000000 Y
b00000000000000000000000000010000 Z
b00000000000000000000000000010000 [
b00000000000000000000000000000000 _
b00000000000000000000000000010100 `
b00000000000000000000000000010100 a
b00000000000000000000000000010100 b
1c
#10
0c
#11
b00000000000001011000010100010011 #
b00000000000000000000000000010100 &
b0000000000000101100001010 *
b01011 +
b01010 -
b00000000000000000000000000010100 Z
b00000000000000000000000000010100 [
b00000000000000000000000000011000 `
b00000000000000000000000000011000 a
b00000000000000000000000000011000 b
1c
#12
0c
#13
b00000001000000000000000011101111 #
b00000000000000000000000000011000 &
b1101111 '
b0000000100000000000000001 *
b00000 +
b10000 ,
b00001 -
1N
b0010 Q
1S
b00000000000000000000000000010000 U
b00000000000000000000000000011100 V
0W
b00000000000000000000000000010000 X
b00000000000000000000000000010000 Y
b00000000000000000000000000101000 Z
b00000000000000000000000000101000 [
b100 \
b1101111 ^
b00000000000000000000000000010000 _
b00000000000000000000000000101000 `
b00000000000000000000000000011100 a
b00000000000000000000000000101000 b
1c
#14
0c
#15
b00000000000101011001010110010011 #
b00000000000000000000000000011100 %
b00000000000000000000000000101000 &
b0010011 '
b001 (
b0000000000010101100101011 *
b01011 +
b00001 ,
b01011 -
b00000000000000000000000000011100 /
0N
b0111 Q
0S
b00000000000000000000000000000000 U
b00000000000000000000000000000000 V
1W
b00000000000000000000000000000001 X
b00000000000000000000000000000000 Y
b00000000000000000000000000101001 Z
b00000000000000000000000000101001 [
b000 \
b0010011 ^
b00000000000000000000000000000001 _
b00000000000000000000000000101100 `
b00000000000000000000000000101100 a
b00000000000000000000000000101100 b
1c
#16
0c
#17
b00000000000101011000010110010011 #
b00000000000000000000000000101100 &
b000 (
b0000000000010101100001011 *
b0000 Q
b00000000000000000000000000000001 U
b00000000000000000000000000000001 V
0W
b00000000000000000000000000000001 Y
b00000000000000000000000000101101 Z
b00000000000000000000000000101101 [
b00000000000000000000000000110000 `
b00000000000000000000000000110000 a
b00000000000000000000000000110000 b
1c
#18
0c
#19
b00000000000100000000111000010011 #
b00000000000000000000000000110000 &
b0000000000010000000011100 *
b00000 +
b11100 -
b00000000000000000000000000000001 9
b00000000000000000000000000110001 Z
b00000000000000000000000000110001 [
b00000000000000000000000000110100 `
b00000000000000000000000000110100 a
b00000000000000000000000000110100 b
1c
#20
0c
#21
b01000000011111100000111000110011 #
b00000000000000000000000000000001 $
b00000000000000000000000000000001 %
b00000000000000000000000000110100 &
b0110011 '
1)
b0100000001111110000011100 *
b11100 +
b00111 ,
b00000000000000000000000000000001 J
b1000 Q
0R
b00000000000000000000000000000000 U
b00000000000000000000000000000000 V
1W
b00000000000000000000010000000111 X
b00000000000000000000000000000000 Y
b00000000000000000000010000111011 Z
b00000000000000000000010000111011 [
b0110011 ^
b00000000000000000000000000111000 `
b00000000000000000000000000111000 a
b00000000000000000000000000111000 b
1c
#22
0c
#23
b11111110000011100001111011100011 #
b00000000000000000000000000000000 $
b00000000000000000000000000000000 %
b00000000000000000000000000111000 &
b1100011 '
b001 (
b1111111000001110000111101 *
b00000 ,
b11101 -
b00000000000000000000000000000000 J
b0001 Q
b11111111111111111111111111111100 X
b00000000000000000000000000110100 Z
b00000000000000000000000000110100 [
b011 \
0]
b1100011 ^
b00000000000000000000000000000000 _
b00000000000000000000000000111100 `
b00000000000000000000000000111100 a
b00000000000000000000000000111100 b
1c
#24
0c
#25
b00000000000000001000000001100111 #
b00000000000000000000000000011100 $
b00000000000000000000000000111100 &
b1100111 '
b000 (
0)
b0000000000000000100000000 *
b00001 +
b00000 -
1N
b0011 Q
1R
1S
1T
b00000000000000000000000000011100 U
b00000000000000000000000001000000 V
0W
b00000000000000000000000000000000 X
b00000000000000000000000000011100 Y
b00000000000000000000000000111100 Z
b00000000000000000000000000011100 [
b000 \
1]
b1100111 ^
b00000000000000000000000000011100 `
b00000000000000000000000001000000 a
b00000000000000000000000000011100 b
1c
#26
0c
#27
b00000000000001011000010100010011 #
b00000000000000000000000000000001 $
b00000000000000000000000001000000 %
b00000000000000000000000000011100 &
b0010011 '
b0000000000000101100001010 *
b01011 +
b01010 -
b00000000000000000000000001000000 .
0N
b0000 Q
0S
0T
b00000000000000000000000000000001 U
b00000000000000000000000000000001 V
b00000000000000000000000000000001 Y
b00000000000000000000000000011100 Z
b0010011 ^
b00000000000000000000000000100000 `
b00000000000000000000000000100000 a
b00000000000000000000000000100000 b
1c
#28
0c
#29
b00000010011001011000001001100011 #
b00000000000000000000000011111111 %
b00000000000000000000000000100000 &
b1100011 '
b0000001001100101100000100 *
b00110 ,
b00100 -
b00000000000000000000000000000000 .
b00000000000000000000000000000001 8
b1101 Q
0R
b00000000000000000000000011111110 U
b00000000000000000000000011111110 V
b00000000000000000000000000100100 X
b00000000000000000000000011111110 Y
b00000000000000000000000001000100 Z
b00000000000000000000000001000100 [
b011 \
0]
b1100011 ^
b00000000000000000000000011111111 _
b00000000000000000000000000100100 `
b00000000000000000000000000100100 a
b00000000000000000000000000100100 b
1c
b00000000000000000000000000000001 f
#30
0c
#31
b11111110000000110001101011100011 #
b00000000000000000000000011111111 $
b00000000000000000000000000000000 %
b00000000000000000000000000100100 &
b001 (
1)
b1111111000000011000110101 *
b00110 +
b00000 ,
b10101 -
1N
b0001 Q
b00000000000000000000000000000001 U
b00000000000000000000000000000001 V
b11111111111111111111111111110100 X
b00000000000000000000000000000001 Y
b00000000000000000000000000011000 Z
b00000000000000000000000000011000 [
b00000000000000000000000000000000 _
b00000000000000000000000000011000 `
b00000000000000000000000000101000 a
b00000000000000000000000000011000 b
1c
#32
0c
#33
b00000001000000000000000011101111 #
b00000000000000000000000000000000 $
b00000000000000000000000000011000 &
b1101111 '
b000 (
0)
b0000000100000000000000001 *
b00000 +
b10000 ,
b00001 -
b0010 Q
1R
1S
b00000000000000000000000000010000 U
b00000000000000000000000000011100 V
b00000000000000000000000000010000 X
b00000000000000000000000000010000 Y
b00000000000000000000000000101000 Z
b00000000000000000000000000101000 [
b100 \
1]
b1101111 ^
b00000000000000000000000000010000 _
b00000000000000000000000000101000 `
b00000000000000000000000000011100 a
b00000000000000000000000000101000 b
1c
#34
0c
#35
b00000000000101011001010110010011 #
b00000000000000000000000000000001 $
b00000000000000000000000000011100 %
b00000000000000000000000000101000 &
b0010011 '
b001 (
b0000000000010101100101011 *
b01011 +
b00001 ,
b01011 -
0N
b0111 Q
0S
b00000000000000000000000000000010 U
b00000000000000000000000000000010 V
b00000000000000000000000000000001 X
b00000000000000000000000000000010 Y
b00000000000000000000000000101001 Z
b00000000000000000000000000101001 [
b000 \
b0010011 ^
b00000000000000000000000000000001 _
b00000000000000000000000000101100 `
b00000000000000000000000000101100 a
b00000000000000000000000000101100 b
1c
#36
0c
#37
b00000000000101011000010110010011 #
b00000000000000000000000000000010 $
b00000000000000000000000000101100 &
b000 (
b0000000000010101100001011 *
b00000000000000000000000000000010 9
b0000 Q
b00000000000000000000000000000011 U
b00000000000000000000000000000011 V
b00000000000000000000000000000011 Y
b00000000000000000000000000101101 Z
b00000000000000000000000000101101 [
b00000000000000000000000000110000 `
b00000000000000000000000000110000 a
b00000000000000000000000000110000 b
1c
#38
0c
#39
b00000000000100000000111000010011 #
b00000000000000000000000000000000 $
b00000000000000000000000000110000 &
b0000000000010000000011100 *
b00000 +
b11100 -
b00000000000000000000000000000011 9
b00000000000000000000000000000001 U
b00000000000000000000000000000001 V
b00000000000000000000000000000001 Y
b00000000000000000000000000110001 Z
b00000000000000000000000000110001 [
b00000000000000000000000000110100 `
b00000000000000000000000000110100 a
b00000000000000000000000000110100 b
1c
#40
0c
#41
b01000000011111100000111000110011 #
b00000000000000000000000000000001 $
b00000000000000000000000000000001 %
b00000000000000000000000000110100 &
b0110011 '
1)
b0100000001111110000011100 *
b11100 +
b00111 ,
b00000000000000000000000000000001 J
b1000 Q
0R
b00000000000000000000000000000000 U
b00000000000000000000000000000000 V
1W
b00000000000000000000010000000111 X
b00000000000000000000000000000000 Y
b00000000000000000000010000111011 Z
b00000000000000000000010000111011 [
b0110011 ^
b00000000000000000000000000111000 `
b00000000000000000000000000111000 a
b00000000000000000000000000111000 b
1c
#42
0c
#43
b11111110000011100001111011100011 #
b00000000000000000000000000000000 $
b00000000000000000000000000000000 %
b00000000000000000000000000111000 &
b1100011 '
b001 (
b1111111000001110000111101 *
b00000 ,
b11101 -
b00000000000000000000000000000000 J
b0001 Q
b11111111111111111111111111111100 X
b00000000000000000000000000110100 Z
b00000000000000000000000000110100 [
b011 \
0]
b1100011 ^
b00000000000000000000000000000000 _
b00000000000000000000000000111100 `
b00000000000000000000000000111100 a
b00000000000000000000000000111100 b
1c
#44
0c
#45
b00000000000000001000000001100111 #
b00000000000000000000000000011100 $
b00000000000000000000000000111100 &
b1100111 '
b000 (
0)
b0000000000000000100000000 *
b00001 +
b00000 -
1N
b0011 Q
1R
1S
1T
b00000000000000000000000000011100 U
b00000000000000000000000001000000 V
0W
b00000000000000000000000000000000 X
b00000000000000000000000000011100 Y
b00000000000000000000000000111100 Z
b00000000000000000000000000011100 [
b000 \
1]
b1100111 ^
b00000000000000000000000000011100 `
b00000000000000000000000001000000 a
b00000000000000000000000000011100 b
1c
#46
0c
#47
b00000000000001011000010100010011 #
b00000000000000000000000000000011 $
b00000000000000000000000001000000 %
b00000000000000000000000000011100 &
b0010011 '
b0000000000000101100001010 *
b01011 +
b01010 -
b00000000000000000000000001000000 .
0N
b0000 Q
0S
0T
b00000000000000000000000000000011 U
b00000000000000000000000000000011 V
b00000000000000000000000000000011 Y
b00000000000000000000000000011100 Z
b0010011 ^
b00000000000000000000000000100000 `
b00000000000000000000000000100000 a
b00000000000000000000000000100000 b
1c
#48
0c
#49
b00000010011001011000001001100011 #
b00000000000000000000000011111111 %
b00000000000000000000000000100000 &
b1100011 '
b0000001001100101100000100 *
b00110 ,
b00100 -
b00000000000000000000000000000000 .
b00000000000000000000000000000011 8
b1101 Q
0R
b00000000000000000000000011111100 U
b00000000000000000000000011111100 V
b00000000000000000000000000100100 X
b00000000000000000000000011111100 Y
b00000000000000000000000001000100 Z
b00000000000000000000000001000100 [
b011 \
0]
b1100011 ^
b00000000000000000000000011111111 _
b00000000000000000000000000100100 `
b00000000000000000000000000100100 a
b00000000000000000000000000100100 b
1c
b00000000000000000000000000000011 f
#50
0c
#51
b11111110000000110001101011100011 #
b00000000000000000000000011111111 $
b00000000000000000000000000000000 %
b00000000000000000000000000100100 &
b001 (
1)
b1111111000000011000110101 *
b00110 +
b00000 ,
b10101 -
1N
b0001 Q
b00000000000000000000000000000001 U
b00000000000000000000000000000001 V
b11111111111111111111111111110100 X
b00000000000000000000000000000001 Y
b00000000000000000000000000011000 Z
b00000000000000000000000000011000 [
b00000000000000000000000000000000 _
b00000000000000000000000000011000 `
b00000000000000000000000000101000 a
b00000000000000000000000000011000 b
1c
#52
0c
#53
b00000001000000000000000011101111 #
b00000000000000000000000000000000 $
b00000000000000000000000000011000 &
b1101111 '
b000 (
0)
b0000000100000000000000001 *
b00000 +
b10000 ,
b00001 -
b0010 Q
1R
1S
b00000000000000000000000000010000 U
b00000000000000000000000000011100 V
b00000000000000000000000000010000 X
b00000000000000000000000000010000 Y
b00000000000000000000000000101000 Z
b00000000000000000000000000101000 [
b100 \
1]
b1101111 ^
b00000000000000000000000000010000 _
b00000000000000000000000000101000 `
b00000000000000000000000000011100 a
b00000000000000000000000000101000 b
1c
#54
0c
#55
b00000000000101011001010110010011 #
b00000000000000000000000000000011 $
b00000000000000000000000000011100 %
b00000000000000000000000000101000 &
b0010011 '
b001 (
b0000000000010101100101011 *
b01011 +
b00001 ,
b01011 -
0N
b0111 Q
0S
b00000000000000000000000000000110 U
b00000000000000000000000000000110 V
b00000000000000000000000000000001 X
b00000000000000000000000000000110 Y
b00000000000000000000000000101001 Z
b00000000000000000000000000101001 [
b000 \
b0010011 ^
b00000000000000000000000000000001 _
b00000000000000000000000000101100 `
b00000000000000000000000000101100 a
b00000000000000000000000000101100 b
1c
#56
0c
#57
b00000000000101011000010110010011 #
b00000000000000000000000000000110 $
b00000000000000000000000000101100 &
b000 (
b0000000000010101100001011 *
b00000000000000000000000000000110 9
b0000 Q
b00000000000000000000000000000111 U
b00000000000000000000000000000111 V
b00000000000000000000000000000111 Y
b00000000000000000000000000101101 Z
b00000000000000000000000000101101 [
b00000000000000000000000000110000 `
b00000000000000000000000000110000 a
b00000000000000000000000000110000 b
1c
#58
0c
#59
b00000000000100000000111000010011 #
b00000000000000000000000000000000 $
b00000000000000000000000000110000 &
b0000000000010000000011100 *
b00000 +
b11100 -
b00000000000000000000000000000111 9
b00000000000000000000000000000001 U
b00000000000000000000000000000001 V
b00000000000000000000000000000001 Y
b00000000000000000000000000110001 Z
b00000000000000000000000000110001 [
b00000000000000000000000000110100 `
b00000000000000000000000000110100 a
b00000000000000000000000000110100 b
1c
#60
0c
#61
b01000000011111100000111000110011 #
b00000000000000000000000000000001 $
b00000000000000000000000000000001 %
b00000000000000000000000000110100 &
b0110011 '
1)
b0100000001111110000011100 *
b11100 +
b00111 ,
b00000000000000000000000000000001 J
b1000 Q
0R
b00000000000000000000000000000000 U
b00000000000000000000000000000000 V
1W
b00000000000000000000010000000111 X
b00000000000000000000000000000000 Y
b00000000000000000000010000111011 Z
b00000000000000000000010000111011 [
b0110011 ^
b00000000000000000000000000111000 `
b00000000000000000000000000111000 a
b00000000000000000000000000111000 b
1c
#62
0c
#63
b11111110000011100001111011100011 #
b00000000000000000000000000000000 $
b00000000000000000000000000000000 %
b00000000000000000000000000111000 &
b1100011 '
b001 (
b1111111000001110000111101 *
b00000 ,
b11101 -
b00000000000000000000000000000000 J
b0001 Q
b11111111111111111111111111111100 X
b00000000000000000000000000110100 Z
b00000000000000000000000000110100 [
b011 \
0]
b1100011 ^
b00000000000000000000000000000000 _
b00000000000000000000000000111100 `
b00000000000000000000000000111100 a
b00000000000000000000000000111100 b
1c
#64
0c
#65
b00000000000000001000000001100111 #
b00000000000000000000000000011100 $
b00000000000000000000000000111100 &
b1100111 '
b000 (
0)
b0000000000000000100000000 *
b00001 +
b00000 -
1N
b0011 Q
1R
1S
1T
b00000000000000000000000000011100 U
b00000000000000000000000001000000 V
0W
b00000000000000000000000000000000 X
b00000000000000000000000000011100 Y
b00000000000000000000000000111100 Z
b00000000000000000000000000011100 [
b000 \
1]
b1100111 ^
b00000000000000000000000000011100 `
b00000000000000000000000001000000 a
b00000000000000000000000000011100 b
1c
#66
0c
#67
b00000000000001011000010100010011 #
b00000000000000000000000000000111 $
b00000000000000000000000001000000 %
b00000000000000000000000000011100 &
b0010011 '
b0000000000000101100001010 *
b01011 +
b01010 -
b00000000000000000000000001000000 .
0N
b0000 Q
0S
0T
b00000000000000000000000000000111 U
b00000000000000000000000000000111 V
b00000000000000000000000000000111 Y
b00000000000000000000000000011100 Z
b0010011 ^
b00000000000000000000000000100000 `
b00000000000000000000000000100000 a
b00000000000000000000000000100000 b
1c
#68
0c
#69
b00000010011001011000001001100011 #
b00000000000000000000000011111111 %
b00000000000000000000000000100000 &
b1100011 '
b0000001001100101100000100 *
b00110 ,
b00100 -
b00000000000000000000000000000000 .
b00000000000000000000000000000111 8
b1101 Q
0R
b00000000000000000000000011111000 U
b00000000000000000000000011111000 V
b00000000000000000000000000100100 X
b00000000000000000000000011111000 Y
b00000000000000000000000001000100 Z
b00000000000000000000000001000100 [
b011 \
0]
b1100011 ^
b00000000000000000000000011111111 _
b00000000000000000000000000100100 `
b00000000000000000000000000100100 a
b00000000000000000000000000100100 b
1c
b00000000000000000000000000000111 f
#70
0c
#71
b11111110000000110001101011100011 #
b00000000000000000000000011111111 $
b00000000000000000000000000000000 %
b00000000000000000000000000100100 &
b001 (
1)
b1111111000000011000110101 *
b00110 +
b00000 ,
b10101 -
1N
b0001 Q
b00000000000000000000000000000001 U
b00000000000000000000000000000001 V
b11111111111111111111111111110100 X
b00000000000000000000000000000001 Y
b00000000000000000000000000011000 Z
b00000000000000000000000000011000 [
b00000000000000000000000000000000 _
b00000000000000000000000000011000 `
b00000000000000000000000000101000 a
b00000000000000000000000000011000 b
1c
#72
0c
#73
b00000001000000000000000011101111 #
b00000000000000000000000000000000 $
b00000000000000000000000000011000 &
b1101111 '
b000 (
0)
b0000000100000000000000001 *
b00000 +
b10000 ,
b00001 -
b0010 Q
1R
1S
b00000000000000000000000000010000 U
b00000000000000000000000000011100 V
b00000000000000000000000000010000 X
b00000000000000000000000000010000 Y
b00000000000000000000000000101000 Z
b00000000000000000000000000101000 [
b100 \
1]
b1101111 ^
b00000000000000000000000000010000 _
b00000000000000000000000000101000 `
b00000000000000000000000000011100 a
b00000000000000000000000000101000 b
1c
#74
0c
#75
b00000000000101011001010110010011 #
b00000000000000000000000000000111 $
b00000000000000000000000000011100 %
b00000000000000000000000000101000 &
b0010011 '
b001 (
b0000000000010101100101011 *
b01011 +
b00001 ,
b01011 -
0N
b0111 Q
0S
b00000000000000000000000000001110 U
b00000000000000000000000000001110 V
b00000000000000000000000000000001 X
b00000000000000000000000000001110 Y
b00000000000000000000000000101001 Z
b00000000000000000000000000101001 [
b000 \
b0010011 ^
b00000000000000000000000000000001 _
b00000000000000000000000000101100 `
b00000000000000000000000000101100 a
b00000000000000000000000000101100 b
1c
#76
0c
#77
b00000000000101011000010110010011 #
b00000000000000000000000000001110 $
b00000000000000000000000000101100 &
b000 (
b0000000000010101100001011 *
b00000000000000000000000000001110 9
b0000 Q
b00000000000000000000000000001111 U
b00000000000000000000000000001111 V
b00000000000000000000000000001111 Y
b00000000000000000000000000101101 Z
b00000000000000000000000000101101 [
b00000000000000000000000000110000 `
b00000000000000000000000000110000 a
b00000000000000000000000000110000 b
1c
#78
0c
#79
b00000000000100000000111000010011 #
b00000000000000000000000000000000 $
b00000000000000000000000000110000 &
b0000000000010000000011100 *
b00000 +
b11100 -
b00000000000000000000000000001111 9
b00000000000000000000000000000001 U
b00000000000000000000000000000001 V
b00000000000000000000000000000001 Y
b00000000000000000000000000110001 Z
b00000000000000000000000000110001 [
b00000000000000000000000000110100 `
b00000000000000000000000000110100 a
b00000000000000000000000000110100 b
1c
#80
0c
