cpu1.vcd
$version Generated by VerilatedVcd $end
$date Wed Dec  6 16:22:38 2023 $end
$timescale 1ps $end

 $scope module TOP $end
  $var wire 32 h a0 [31:0] $end
  $var wire  1 e clk $end
  $var wire  1 f rst $end
  $var wire  1 g trigger $end
  $scope module cpu1 $end
   $var wire  1 R ALUSrc_wire $end
   $var wire 32 Y ALU_o_wire [31:0] $end
   $var wire  1 Q ALUctrl_wire $end
   $var wire 32 j DATA_WIDTH [31:0] $end
   $var wire  1 W EQ_wire $end
   $var wire 32 X Imm_o_wire [31:0] $end
   $var wire  1 T JRetSrc_wire $end
   $var wire 32 k JRet_o [31:0] $end
   $var wire 32 [ JRet_o_wire [31:0] $end
   $var wire  1 S JumpSrc_wire $end
   $var wire  1 P MemWrite_wire $end
   $var wire  1 N PCSrc_wire $end
   $var wire 32 & PC_out_wire [31:0] $end
   $var wire 32 Z PC_target [31:0] $end
   $var wire 32 $ RD1_wire [31:0] $end
   $var wire 32 % RD2_wire [31:0] $end
   $var wire  1 O ResultSrc_wire $end
   $var wire 32 U Result_wire [31:0] $end
   $var wire 32 V WD3_wire [31:0] $end
   $var wire 32 h a0 [31:0] $end
   $var wire  1 e clk $end
   $var wire 32 # instr_wire [31:0] $end
   $var wire  1 f rst $end
   $var wire  1 g trigger $end
   $scope module D $end
    $var wire  3 \ ALUctrl [2:0] $end
    $var wire  1 R ALUsrc $end
    $var wire 32 j DATA_WIDTH [31:0] $end
    $var wire  1 W EQ $end
    $var wire  3 ] ImmSrc_wire [2:0] $end
    $var wire 32 X Imm_o [31:0] $end
    $var wire  1 T JRetSrc $end
    $var wire  1 S JumpSrc $end
    $var wire  1 P MemWrite $end
    $var wire  1 N PCSrc $end
    $var wire 32 $ RD1 [31:0] $end
    $var wire 32 % RD2 [31:0] $end
    $var wire  1 ^ RegWrite_wire $end
    $var wire  1 O ResultSrc $end
    $var wire 32 V WD3 [31:0] $end
    $var wire 32 l WIDTH [31:0] $end
    $var wire 32 h a0 [31:0] $end
    $var wire  1 e clk $end
    $var wire 32 # instr [31:0] $end
    $scope module control $end
     $var wire  3 \ ALUctrl [2:0] $end
     $var wire  1 R ALUsrc $end
     $var wire  1 W EQ $end
     $var wire  3 ] ImmSrc [2:0] $end
     $var wire  1 T JRetSrc $end
     $var wire  1 S JumpSrc $end
     $var wire  1 P MemWrite $end
     $var wire  1 N PCSrc $end
     $var wire  1 ^ RegWrite $end
     $var wire  1 O ResultSrc $end
     $var wire  3 ( funct3 [2:0] $end
     $var wire  1 ) funct7 $end
     $var wire  7 ' opcode [6:0] $end
     $scope module unnamedblk1 $end
      $var wire  7 _ Type_O [6:0] $end
     $upscope $end
    $upscope $end
    $scope module extend $end
     $var wire 32 j DATA_WIDTH [31:0] $end
     $var wire  3 ] ImmSrc [2:0] $end
     $var wire 25 * Imm_i [31:7] $end
     $var wire 32 X Imm_o [31:0] $end
    $upscope $end
    $scope module rf $end
     $var wire  5 + AD1 [4:0] $end
     $var wire  5 , AD2 [4:0] $end
     $var wire  5 - AD3 [4:0] $end
     $var wire 32 m ADDRESS_WIDTH [31:0] $end
     $var wire 32 j DATA_WIDTH [31:0] $end
     $var wire 32 $ RD1 [31:0] $end
     $var wire 32 % RD2 [31:0] $end
     $var wire 32 V WD3 [31:0] $end
     $var wire  1 ^ WE3 $end
     $var wire 32 h a0 [31:0] $end
     $var wire  1 e clk $end
     $var wire 32 . registers[0] [31:0] $end
     $var wire 32 8 registers[10] [31:0] $end
     $var wire 32 9 registers[11] [31:0] $end
     $var wire 32 : registers[12] [31:0] $end
     $var wire 32 ; registers[13] [31:0] $end
     $var wire 32 < registers[14] [31:0] $end
     $var wire 32 = registers[15] [31:0] $end
     $var wire 32 > registers[16] [31:0] $end
     $var wire 32 ? registers[17] [31:0] $end
     $var wire 32 @ registers[18] [31:0] $end
     $var wire 32 A registers[19] [31:0] $end
     $var wire 32 / registers[1] [31:0] $end
     $var wire 32 B registers[20] [31:0] $end
     $var wire 32 C registers[21] [31:0] $end
     $var wire 32 D registers[22] [31:0] $end
     $var wire 32 E registers[23] [31:0] $end
     $var wire 32 F registers[24] [31:0] $end
     $var wire 32 G registers[25] [31:0] $end
     $var wire 32 H registers[26] [31:0] $end
     $var wire 32 I registers[27] [31:0] $end
     $var wire 32 J registers[28] [31:0] $end
     $var wire 32 K registers[29] [31:0] $end
     $var wire 32 0 registers[2] [31:0] $end
     $var wire 32 L registers[30] [31:0] $end
     $var wire 32 M registers[31] [31:0] $end
     $var wire 32 1 registers[3] [31:0] $end
     $var wire 32 2 registers[4] [31:0] $end
     $var wire 32 3 registers[5] [31:0] $end
     $var wire 32 4 registers[6] [31:0] $end
     $var wire 32 5 registers[7] [31:0] $end
     $var wire 32 6 registers[8] [31:0] $end
     $var wire 32 7 registers[9] [31:0] $end
    $upscope $end
   $upscope $end
   $scope module E $end
    $var wire 32 Y ALU_o [31:0] $end
    $var wire  3 ` ALUctrl [2:0] $end
    $var wire 32 a ALUop2 [31:0] $end
    $var wire  1 R ALUsrc $end
    $var wire 32 j DATA_WIDTH [31:0] $end
    $var wire  1 W EQ $end
    $var wire 32 X Imm_o [31:0] $end
    $var wire 32 $ RD1 [31:0] $end
    $var wire 32 % RD2 [31:0] $end
    $scope module alu_top $end
     $var wire  3 ` ALUControl [2:0] $end
     $var wire 32 Y ALUResult [31:0] $end
     $var wire 32 j DATA_WIDTH [31:0] $end
     $var wire 32 $ SrcA [31:0] $end
     $var wire 32 a SrcB [31:0] $end
     $var wire  1 W Zero $end
    $upscope $end
   $upscope $end
   $scope module IM $end
    $var wire 32 j DATA_WIDTH [31:0] $end
    $var wire 32 [ JRet_o [31:0] $end
    $var wire  1 S JumpSrc $end
    $var wire  1 N PCSrc $end
    $var wire 32 d PC_next [31:0] $end
    $var wire 32 & PC_out [31:0] $end
    $var wire 32 V WD3 [31:0] $end
    $var wire  1 e clk $end
    $var wire 32 c inc_pc [31:0] $end
    $var wire 32 # instr [31:0] $end
    $var wire 32 b next [31:0] $end
    $var wire 32 & pc_wire [31:0] $end
    $var wire 32 U result [31:0] $end
    $var wire  1 f rst $end
    $var wire  1 g trigger $end
    $scope module InstructionMem $end
     $var wire 32 j ADDRESS_WIDTH [31:0] $end
     $var wire 32 n DATA_WIDTH [31:0] $end
     $var wire 32 & addr [31:0] $end
     $var wire 32 # dout [31:0] $end
    $upscope $end
    $scope module pc_reg $end
     $var wire 32 & PC [31:0] $end
     $var wire 32 b PCNext [31:0] $end
     $var wire 32 j WIDTH [31:0] $end
     $var wire  1 e clk $end
     $var wire  1 f rst $end
    $upscope $end
   $upscope $end
   $scope module dm_top $end
    $var wire 32 Y ALU_o [31:0] $end
    $var wire 32 j DATA_WIDTH [31:0] $end
    $var wire  1 P MemWrite $end
    $var wire 32 i RD_wire [31:0] $end
    $var wire 32 U Result [31:0] $end
    $var wire  1 O ResultSrc $end
    $var wire 32 % WD [31:0] $end
    $var wire  1 e clk $end
    $scope module DataMem $end
     $var wire 32 Y A [31:0] $end
     $var wire 32 n DATA_WIDTH [31:0] $end
     $var wire 32 i RD [31:0] $end
     $var wire 32 % WD [31:0] $end
     $var wire  1 P WE $end
     $var wire 32 j WIDTH [31:0] $end
     $var wire  1 e clk $end
    $upscope $end
   $upscope $end
  $upscope $end
 $upscope $end
$enddefinitions $end


#0
b00000000000000000000000000000000 #
b00000000000000000000000000000000 $
b00000000000000000000000000000000 %
b00000000000000000000000000000000 &
b0000000 '
b000 (
0)
b0000000000000000000000000 *
b00000 +
b00000 ,
b00000 -
b00000000000000000000000000000000 .
b00000000000000000000000000000000 /
b00000000000000000000000000000000 0
b00000000000000000000000000000000 1
b00000000000000000000000000000000 2
b00000000000000000000000000000000 3
b00000000000000000000000000000000 4
b00000000000000000000000000000000 5
b00000000000000000000000000000000 6
b00000000000000000000000000000000 7
b00000000000000000000000000000000 8
b00000000000000000000000000000000 9
b00000000000000000000000000000000 :
b00000000000000000000000000000000 ;
b00000000000000000000000000000000 <
b00000000000000000000000000000000 =
b00000000000000000000000000000000 >
b00000000000000000000000000000000 ?
b00000000000000000000000000000000 @
b00000000000000000000000000000000 A
b00000000000000000000000000000000 B
b00000000000000000000000000000000 C
b00000000000000000000000000000000 D
b00000000000000000000000000000000 E
b00000000000000000000000000000000 F
b00000000000000000000000000000000 G
b00000000000000000000000000000000 H
b00000000000000000000000000000000 I
b00000000000000000000000000000000 J
b00000000000000000000000000000000 K
b00000000000000000000000000000000 L
b00000000000000000000000000000000 M
0N
0O
0P
0Q
0R
0S
0T
b00000000000000000000000000000000 U
b00000000000000000000000000000000 V
0W
b00000000000000000000000000000000 X
b00000000000000000000000000000000 Y
b00000000000000000000000000000000 Z
b00000000000000000000000000000000 [
b000 \
b000 ]
0^
b0000000 _
b000 `
b00000000000000000000000000000000 a
b00000000000000000000000000000000 b
b00000000000000000000000000000000 c
b00000000000000000000000000000000 d
0e
0f
1g
b00000000000000000000000000000000 h
b00000000000000000000000000000000 i
b00000000000000000000000000100000 j
b00000000000000000000000000000000 k
b00000000000000000000000000000011 l
b00000000000000000000000000000101 m
b00000000000000000000000000001000 n
#1
b00001111111100000000001100010011 #
b0010011 '
b0000111111110000000000110 *
b11111 ,
b00110 -
1R
b00000000000000000000000011111111 U
b00000000000000000000000011111111 V
b00000000000000000000000011111111 X
b00000000000000000000000011111111 Y
b00000000000000000000000011111111 Z
b00000000000000000000000011111111 [
1^
b0010011 _
b00000000000000000000000011111111 a
b00000000000000000000000000000100 b
b00000000000000000000000000000100 c
b00000000000000000000000000000100 d
1e
#2
0e
#3
b00000000000000000000010100010011 #
b00000000000000000000000000000100 &
b0000000000000000000001010 *
b00000 ,
b01010 -
b00000000000000000000000011111111 4
b00000000000000000000000000000000 U
b00000000000000000000000000000000 V
1W
b00000000000000000000000000000000 X
b00000000000000000000000000000000 Y
b00000000000000000000000000000100 Z
b00000000000000000000000000000100 [
b00000000000000000000000000000000 a
b00000000000000000000000000001000 b
b00000000000000000000000000001000 c
b00000000000000000000000000001000 d
1e
#4
0e
#5
b00000000000000000000010110010011 #
b00000000000000000000000000001000 &
b0000000000000000000001011 *
b01011 -
b00000000000000000000000000001000 Z
b00000000000000000000000000001000 [
b00000000000000000000000000001100 b
b00000000000000000000000000001100 c
b00000000000000000000000000001100 d
1e
#6
0e
#7
b00000000000001011000010100010011 #
b00000000000000000000000000001100 &
b0000000000000101100001010 *
b01011 +
b01010 -
b00000000000000000000000000001100 Z
b00000000000000000000000000001100 [
b00000000000000000000000000010000 b
b00000000000000000000000000010000 c
b00000000000000000000000000010000 d
1e
#8
0e
#9
b00000000000101011000010110010011 #
b00000000000000000000000000010000 &
b0000000000010101100001011 *
b00001 ,
b01011 -
b00000000000000000000000000000001 U
b00000000000000000000000000000001 V
0W
b00000000000000000000000000000001 X
b00000000000000000000000000000001 Y
b00000000000000000000000000010001 Z
b00000000000000000000000000010001 [
b00000000000000000000000000000001 a
b00000000000000000000000000010100 b
b00000000000000000000000000010100 c
b00000000000000000000000000010100 d
1e
#10
0e
#11
b11111110011001011001110011100011 #
b00000000000000000000000000000001 $
b00000000000000000000000011111111 %
b00000000000000000000000000010100 &
b1100011 '
b001 (
1)
b1111111001100101100111001 *
b00110 ,
b11001 -
b00000000000000000000000000000001 9
1N
1Q
0R
b11111111111111111111111111111111 U
b11111111111111111111111111111111 V
b11111111111111111111111111111000 X
b11111111111111111111111111111111 Y
b00000000000000000000000000001100 Z
b00000000000000000000000000001100 [
b001 \
b011 ]
0^
b1100011 _
b001 `
b00000000000000000000000011111111 a
b00000000000000000000000000001100 b
b00000000000000000000000000011000 c
b00000000000000000000000000001100 d
1e
#12
0e
#13
b00000000000001011000010100010011 #
b00000000000000000000000000000000 %
b00000000000000000000000000001100 &
b0010011 '
b000 (
0)
b0000000000000101100001010 *
b00000 ,
b01010 -
0N
0Q
1R
b00000000000000000000000000000001 U
b00000000000000000000000000000001 V
b00000000000000000000000000000000 X
b00000000000000000000000000000001 Y
b000 \
b000 ]
1^
b0010011 _
b000 `
b00000000000000000000000000000000 a
b00000000000000000000000000010000 b
b00000000000000000000000000010000 c
b00000000000000000000000000010000 d
1e
#14
0e
#15
b00000000000101011000010110010011 #
b00000000000000000000000000010000 &
b0000000000010101100001011 *
b00001 ,
b01011 -
b00000000000000000000000000000001 8
b00000000000000000000000000000010 U
b00000000000000000000000000000010 V
b00000000000000000000000000000001 X
b00000000000000000000000000000010 Y
b00000000000000000000000000010001 Z
b00000000000000000000000000010001 [
b00000000000000000000000000000001 a
b00000000000000000000000000010100 b
b00000000000000000000000000010100 c
b00000000000000000000000000010100 d
1e
b00000000000000000000000000000001 h
#16
0e
#17
b11111110011001011001110011100011 #
b00000000000000000000000000000010 $
b00000000000000000000000011111111 %
b00000000000000000000000000010100 &
b1100011 '
b001 (
1)
b1111111001100101100111001 *
b00110 ,
b11001 -
b00000000000000000000000000000010 9
1N
1Q
0R
b11111111111111111111111111111111 U
b11111111111111111111111111111111 V
b11111111111111111111111111111000 X
b11111111111111111111111111111111 Y
b00000000000000000000000000001100 Z
b00000000000000000000000000001100 [
b001 \
b011 ]
0^
b1100011 _
b001 `
b00000000000000000000000011111111 a
b00000000000000000000000000001100 b
b00000000000000000000000000011000 c
b00000000000000000000000000001100 d
1e
#18
0e
#19
b00000000000001011000010100010011 #
b00000000000000000000000000000000 %
b00000000000000000000000000001100 &
b0010011 '
b000 (
0)
b0000000000000101100001010 *
b00000 ,
b01010 -
0N
0Q
1R
b00000000000000000000000000000010 U
b00000000000000000000000000000010 V
b00000000000000000000000000000000 X
b00000000000000000000000000000010 Y
b000 \
b000 ]
1^
b0010011 _
b000 `
b00000000000000000000000000000000 a
b00000000000000000000000000010000 b
b00000000000000000000000000010000 c
b00000000000000000000000000010000 d
1e
#20
0e
#21
b00000000000101011000010110010011 #
b00000000000000000000000000010000 &
b0000000000010101100001011 *
b00001 ,
b01011 -
b00000000000000000000000000000010 8
b00000000000000000000000000000011 U
b00000000000000000000000000000011 V
b00000000000000000000000000000001 X
b00000000000000000000000000000011 Y
b00000000000000000000000000010001 Z
b00000000000000000000000000010001 [
b00000000000000000000000000000001 a
b00000000000000000000000000010100 b
b00000000000000000000000000010100 c
b00000000000000000000000000010100 d
1e
b00000000000000000000000000000010 h
#22
0e
#23
b11111110011001011001110011100011 #
b00000000000000000000000000000011 $
b00000000000000000000000011111111 %
b00000000000000000000000000010100 &
b1100011 '
b001 (
1)
b1111111001100101100111001 *
b00110 ,
b11001 -
b00000000000000000000000000000011 9
1N
1Q
0R
b11111111111111111111111111111111 U
b11111111111111111111111111111111 V
b11111111111111111111111111111000 X
b11111111111111111111111111111111 Y
b00000000000000000000000000001100 Z
b00000000000000000000000000001100 [
b001 \
b011 ]
0^
b1100011 _
b001 `
b00000000000000000000000011111111 a
b00000000000000000000000000001100 b
b00000000000000000000000000011000 c
b00000000000000000000000000001100 d
1e
#24
0e
#25
b00000000000001011000010100010011 #
b00000000000000000000000000000000 %
b00000000000000000000000000001100 &
b0010011 '
b000 (
0)
b0000000000000101100001010 *
b00000 ,
b01010 -
0N
0Q
1R
b00000000000000000000000000000011 U
b00000000000000000000000000000011 V
b00000000000000000000000000000000 X
b00000000000000000000000000000011 Y
b000 \
b000 ]
1^
b0010011 _
b000 `
b00000000000000000000000000000000 a
b00000000000000000000000000010000 b
b00000000000000000000000000010000 c
b00000000000000000000000000010000 d
1e
#26
0e
#27
b00000000000101011000010110010011 #
b00000000000000000000000000010000 &
b0000000000010101100001011 *
b00001 ,
b01011 -
b00000000000000000000000000000011 8
b00000000000000000000000000000100 U
b00000000000000000000000000000100 V
b00000000000000000000000000000001 X
b00000000000000000000000000000100 Y
b00000000000000000000000000010001 Z
b00000000000000000000000000010001 [
b00000000000000000000000000000001 a
b00000000000000000000000000010100 b
b00000000000000000000000000010100 c
b00000000000000000000000000010100 d
1e
b00000000000000000000000000000011 h
#28
0e
#29
b11111110011001011001110011100011 #
b00000000000000000000000000000100 $
b00000000000000000000000011111111 %
b00000000000000000000000000010100 &
b1100011 '
b001 (
1)
b1111111001100101100111001 *
b00110 ,
b11001 -
b00000000000000000000000000000100 9
1N
1Q
0R
b11111111111111111111111111111111 U
b11111111111111111111111111111111 V
b11111111111111111111111111111000 X
b11111111111111111111111111111111 Y
b00000000000000000000000000001100 Z
b00000000000000000000000000001100 [
b001 \
b011 ]
0^
b1100011 _
b001 `
b00000000000000000000000011111111 a
b00000000000000000000000000001100 b
b00000000000000000000000000011000 c
b00000000000000000000000000001100 d
1e
#30
0e
#31
b00000000000001011000010100010011 #
b00000000000000000000000000000000 %
b00000000000000000000000000001100 &
b0010011 '
b000 (
0)
b0000000000000101100001010 *
b00000 ,
b01010 -
0N
0Q
1R
b00000000000000000000000000000100 U
b00000000000000000000000000000100 V
b00000000000000000000000000000000 X
b00000000000000000000000000000100 Y
b000 \
b000 ]
1^
b0010011 _
b000 `
b00000000000000000000000000000000 a
b00000000000000000000000000010000 b
b00000000000000000000000000010000 c
b00000000000000000000000000010000 d
1e
#32
0e
#33
b00000000000101011000010110010011 #
b00000000000000000000000000010000 &
b0000000000010101100001011 *
b00001 ,
b01011 -
b00000000000000000000000000000100 8
b00000000000000000000000000000101 U
b00000000000000000000000000000101 V
b00000000000000000000000000000001 X
b00000000000000000000000000000101 Y
b00000000000000000000000000010001 Z
b00000000000000000000000000010001 [
b00000000000000000000000000000001 a
b00000000000000000000000000010100 b
b00000000000000000000000000010100 c
b00000000000000000000000000010100 d
1e
b00000000000000000000000000000100 h
#34
0e
#35
b11111110011001011001110011100011 #
b00000000000000000000000000000101 $
b00000000000000000000000011111111 %
b00000000000000000000000000010100 &
b1100011 '
b001 (
1)
b1111111001100101100111001 *
b00110 ,
b11001 -
b00000000000000000000000000000101 9
1N
1Q
0R
b11111111111111111111111111111111 U
b11111111111111111111111111111111 V
b11111111111111111111111111111000 X
b11111111111111111111111111111111 Y
b00000000000000000000000000001100 Z
b00000000000000000000000000001100 [
b001 \
b011 ]
0^
b1100011 _
b001 `
b00000000000000000000000011111111 a
b00000000000000000000000000001100 b
b00000000000000000000000000011000 c
b00000000000000000000000000001100 d
1e
#36
0e
#37
b00000000000001011000010100010011 #
b00000000000000000000000000000000 %
b00000000000000000000000000001100 &
b0010011 '
b000 (
0)
b0000000000000101100001010 *
b00000 ,
b01010 -
0N
0Q
1R
b00000000000000000000000000000101 U
b00000000000000000000000000000101 V
b00000000000000000000000000000000 X
b00000000000000000000000000000101 Y
b000 \
b000 ]
1^
b0010011 _
b000 `
b00000000000000000000000000000000 a
b00000000000000000000000000010000 b
b00000000000000000000000000010000 c
b00000000000000000000000000010000 d
1e
#38
0e
#39
b00000000000101011000010110010011 #
b00000000000000000000000000010000 &
b0000000000010101100001011 *
b00001 ,
b01011 -
b00000000000000000000000000000101 8
b00000000000000000000000000000110 U
b00000000000000000000000000000110 V
b00000000000000000000000000000001 X
b00000000000000000000000000000110 Y
b00000000000000000000000000010001 Z
b00000000000000000000000000010001 [
b00000000000000000000000000000001 a
b00000000000000000000000000010100 b
b00000000000000000000000000010100 c
b00000000000000000000000000010100 d
1e
b00000000000000000000000000000101 h
#40
0e
#41
b11111110011001011001110011100011 #
b00000000000000000000000000000110 $
b00000000000000000000000011111111 %
b00000000000000000000000000010100 &
b1100011 '
b001 (
1)
b1111111001100101100111001 *
b00110 ,
b11001 -
b00000000000000000000000000000110 9
1N
1Q
0R
b11111111111111111111111111111111 U
b11111111111111111111111111111111 V
b11111111111111111111111111111000 X
b11111111111111111111111111111111 Y
b00000000000000000000000000001100 Z
b00000000000000000000000000001100 [
b001 \
b011 ]
0^
b1100011 _
b001 `
b00000000000000000000000011111111 a
b00000000000000000000000000001100 b
b00000000000000000000000000011000 c
b00000000000000000000000000001100 d
1e
#42
0e
#43
b00000000000001011000010100010011 #
b00000000000000000000000000000000 %
b00000000000000000000000000001100 &
b0010011 '
b000 (
0)
b0000000000000101100001010 *
b00000 ,
b01010 -
0N
0Q
1R
b00000000000000000000000000000110 U
b00000000000000000000000000000110 V
b00000000000000000000000000000000 X
b00000000000000000000000000000110 Y
b000 \
b000 ]
1^
b0010011 _
b000 `
b00000000000000000000000000000000 a
b00000000000000000000000000010000 b
b00000000000000000000000000010000 c
b00000000000000000000000000010000 d
1e
#44
0e
#45
b00000000000101011000010110010011 #
b00000000000000000000000000010000 &
b0000000000010101100001011 *
b00001 ,
b01011 -
b00000000000000000000000000000110 8
b00000000000000000000000000000111 U
b00000000000000000000000000000111 V
b00000000000000000000000000000001 X
b00000000000000000000000000000111 Y
b00000000000000000000000000010001 Z
b00000000000000000000000000010001 [
b00000000000000000000000000000001 a
b00000000000000000000000000010100 b
b00000000000000000000000000010100 c
b00000000000000000000000000010100 d
1e
b00000000000000000000000000000110 h
#46
0e
#47
b11111110011001011001110011100011 #
b00000000000000000000000000000111 $
b00000000000000000000000011111111 %
b00000000000000000000000000010100 &
b1100011 '
b001 (
1)
b1111111001100101100111001 *
b00110 ,
b11001 -
b00000000000000000000000000000111 9
1N
1Q
0R
b11111111111111111111111111111111 U
b11111111111111111111111111111111 V
b11111111111111111111111111111000 X
b11111111111111111111111111111111 Y
b00000000000000000000000000001100 Z
b00000000000000000000000000001100 [
b001 \
b011 ]
0^
b1100011 _
b001 `
b00000000000000000000000011111111 a
b00000000000000000000000000001100 b
b00000000000000000000000000011000 c
b00000000000000000000000000001100 d
1e
#48
0e
#49
b00000000000001011000010100010011 #
b00000000000000000000000000000000 %
b00000000000000000000000000001100 &
b0010011 '
b000 (
0)
b0000000000000101100001010 *
b00000 ,
b01010 -
0N
0Q
1R
b00000000000000000000000000000111 U
b00000000000000000000000000000111 V
b00000000000000000000000000000000 X
b00000000000000000000000000000111 Y
b000 \
b000 ]
1^
b0010011 _
b000 `
b00000000000000000000000000000000 a
b00000000000000000000000000010000 b
b00000000000000000000000000010000 c
b00000000000000000000000000010000 d
1e
#50
0e
#51
b00000000000101011000010110010011 #
b00000000000000000000000000010000 &
b0000000000010101100001011 *
b00001 ,
b01011 -
b00000000000000000000000000000111 8
b00000000000000000000000000001000 U
b00000000000000000000000000001000 V
b00000000000000000000000000000001 X
b00000000000000000000000000001000 Y
b00000000000000000000000000010001 Z
b00000000000000000000000000010001 [
b00000000000000000000000000000001 a
b00000000000000000000000000010100 b
b00000000000000000000000000010100 c
b00000000000000000000000000010100 d
1e
b00000000000000000000000000000111 h
#52
0e
#53
b11111110011001011001110011100011 #
b00000000000000000000000000001000 $
b00000000000000000000000011111111 %
b00000000000000000000000000010100 &
b1100011 '
b001 (
1)
b1111111001100101100111001 *
b00110 ,
b11001 -
b00000000000000000000000000001000 9
1N
1Q
0R
b11111111111111111111111111111111 U
b11111111111111111111111111111111 V
b11111111111111111111111111111000 X
b11111111111111111111111111111111 Y
b00000000000000000000000000001100 Z
b00000000000000000000000000001100 [
b001 \
b011 ]
0^
b1100011 _
b001 `
b00000000000000000000000011111111 a
b00000000000000000000000000001100 b
b00000000000000000000000000011000 c
b00000000000000000000000000001100 d
1e
#54
0e
#55
b00000000000001011000010100010011 #
b00000000000000000000000000000000 %
b00000000000000000000000000001100 &
b0010011 '
b000 (
0)
b0000000000000101100001010 *
b00000 ,
b01010 -
0N
0Q
1R
b00000000000000000000000000001000 U
b00000000000000000000000000001000 V
b00000000000000000000000000000000 X
b00000000000000000000000000001000 Y
b000 \
b000 ]
1^
b0010011 _
b000 `
b00000000000000000000000000000000 a
b00000000000000000000000000010000 b
b00000000000000000000000000010000 c
b00000000000000000000000000010000 d
1e
#56
0e
#57
b00000000000101011000010110010011 #
b00000000000000000000000000010000 &
b0000000000010101100001011 *
b00001 ,
b01011 -
b00000000000000000000000000001000 8
b00000000000000000000000000001001 U
b00000000000000000000000000001001 V
b00000000000000000000000000000001 X
b00000000000000000000000000001001 Y
b00000000000000000000000000010001 Z
b00000000000000000000000000010001 [
b00000000000000000000000000000001 a
b00000000000000000000000000010100 b
b00000000000000000000000000010100 c
b00000000000000000000000000010100 d
1e
b00000000000000000000000000001000 h
#58
0e
#59
b11111110011001011001110011100011 #
b00000000000000000000000000001001 $
b00000000000000000000000011111111 %
b00000000000000000000000000010100 &
b1100011 '
b001 (
1)
b1111111001100101100111001 *
b00110 ,
b11001 -
b00000000000000000000000000001001 9
1N
1Q
0R
b11111111111111111111111111111111 U
b11111111111111111111111111111111 V
b11111111111111111111111111111000 X
b11111111111111111111111111111111 Y
b00000000000000000000000000001100 Z
b00000000000000000000000000001100 [
b001 \
b011 ]
0^
b1100011 _
b001 `
b00000000000000000000000011111111 a
b00000000000000000000000000001100 b
b00000000000000000000000000011000 c
b00000000000000000000000000001100 d
1e
#60
0e
#61
b00000000000001011000010100010011 #
b00000000000000000000000000000000 %
b00000000000000000000000000001100 &
b0010011 '
b000 (
0)
b0000000000000101100001010 *
b00000 ,
b01010 -
0N
0Q
1R
b00000000000000000000000000001001 U
b00000000000000000000000000001001 V
b00000000000000000000000000000000 X
b00000000000000000000000000001001 Y
b000 \
b000 ]
1^
b0010011 _
b000 `
b00000000000000000000000000000000 a
b00000000000000000000000000010000 b
b00000000000000000000000000010000 c
b00000000000000000000000000010000 d
1e
#62
0e
#63
b00000000000101011000010110010011 #
b00000000000000000000000000010000 &
b0000000000010101100001011 *
b00001 ,
b01011 -
b00000000000000000000000000001001 8
b00000000000000000000000000001010 U
b00000000000000000000000000001010 V
b00000000000000000000000000000001 X
b00000000000000000000000000001010 Y
b00000000000000000000000000010001 Z
b00000000000000000000000000010001 [
b00000000000000000000000000000001 a
b00000000000000000000000000010100 b
b00000000000000000000000000010100 c
b00000000000000000000000000010100 d
1e
b00000000000000000000000000001001 h
#64
0e
#65
b11111110011001011001110011100011 #
b00000000000000000000000000001010 $
b00000000000000000000000011111111 %
b00000000000000000000000000010100 &
b1100011 '
b001 (
1)
b1111111001100101100111001 *
b00110 ,
b11001 -
b00000000000000000000000000001010 9
1N
1Q
0R
b11111111111111111111111111111111 U
b11111111111111111111111111111111 V
b11111111111111111111111111111000 X
b11111111111111111111111111111111 Y
b00000000000000000000000000001100 Z
b00000000000000000000000000001100 [
b001 \
b011 ]
0^
b1100011 _
b001 `
b00000000000000000000000011111111 a
b00000000000000000000000000001100 b
b00000000000000000000000000011000 c
b00000000000000000000000000001100 d
1e
#66
0e
#67
b00000000000001011000010100010011 #
b00000000000000000000000000000000 %
b00000000000000000000000000001100 &
b0010011 '
b000 (
0)
b0000000000000101100001010 *
b00000 ,
b01010 -
0N
0Q
1R
b00000000000000000000000000001010 U
b00000000000000000000000000001010 V
b00000000000000000000000000000000 X
b00000000000000000000000000001010 Y
b000 \
b000 ]
1^
b0010011 _
b000 `
b00000000000000000000000000000000 a
b00000000000000000000000000010000 b
b00000000000000000000000000010000 c
b00000000000000000000000000010000 d
1e
#68
0e
#69
b00000000000101011000010110010011 #
b00000000000000000000000000010000 &
b0000000000010101100001011 *
b00001 ,
b01011 -
b00000000000000000000000000001010 8
b00000000000000000000000000001011 U
b00000000000000000000000000001011 V
b00000000000000000000000000000001 X
b00000000000000000000000000001011 Y
b00000000000000000000000000010001 Z
b00000000000000000000000000010001 [
b00000000000000000000000000000001 a
b00000000000000000000000000010100 b
b00000000000000000000000000010100 c
b00000000000000000000000000010100 d
1e
b00000000000000000000000000001010 h
#70
0e
#71
b11111110011001011001110011100011 #
b00000000000000000000000000001011 $
b00000000000000000000000011111111 %
b00000000000000000000000000010100 &
b1100011 '
b001 (
1)
b1111111001100101100111001 *
b00110 ,
b11001 -
b00000000000000000000000000001011 9
1N
1Q
0R
b11111111111111111111111111111111 U
b11111111111111111111111111111111 V
b11111111111111111111111111111000 X
b11111111111111111111111111111111 Y
b00000000000000000000000000001100 Z
b00000000000000000000000000001100 [
b001 \
b011 ]
0^
b1100011 _
b001 `
b00000000000000000000000011111111 a
b00000000000000000000000000001100 b
b00000000000000000000000000011000 c
b00000000000000000000000000001100 d
1e
#72
0e
#73
b00000000000001011000010100010011 #
b00000000000000000000000000000000 %
b00000000000000000000000000001100 &
b0010011 '
b000 (
0)
b0000000000000101100001010 *
b00000 ,
b01010 -
0N
0Q
1R
b00000000000000000000000000001011 U
b00000000000000000000000000001011 V
b00000000000000000000000000000000 X
b00000000000000000000000000001011 Y
b000 \
b000 ]
1^
b0010011 _
b000 `
b00000000000000000000000000000000 a
b00000000000000000000000000010000 b
b00000000000000000000000000010000 c
b00000000000000000000000000010000 d
1e
#74
0e
#75
b00000000000101011000010110010011 #
b00000000000000000000000000010000 &
b0000000000010101100001011 *
b00001 ,
b01011 -
b00000000000000000000000000001011 8
b00000000000000000000000000001100 U
b00000000000000000000000000001100 V
b00000000000000000000000000000001 X
b00000000000000000000000000001100 Y
b00000000000000000000000000010001 Z
b00000000000000000000000000010001 [
b00000000000000000000000000000001 a
b00000000000000000000000000010100 b
b00000000000000000000000000010100 c
b00000000000000000000000000010100 d
1e
b00000000000000000000000000001011 h
#76
0e
#77
b11111110011001011001110011100011 #
b00000000000000000000000000001100 $
b00000000000000000000000011111111 %
b00000000000000000000000000010100 &
b1100011 '
b001 (
1)
b1111111001100101100111001 *
b00110 ,
b11001 -
b00000000000000000000000000001100 9
1N
1Q
0R
b11111111111111111111111111111111 U
b11111111111111111111111111111111 V
b11111111111111111111111111111000 X
b11111111111111111111111111111111 Y
b00000000000000000000000000001100 Z
b00000000000000000000000000001100 [
b001 \
b011 ]
0^
b1100011 _
b001 `
b00000000000000000000000011111111 a
b00000000000000000000000000001100 b
b00000000000000000000000000011000 c
b00000000000000000000000000001100 d
1e
#78
0e
