InstructionMemory.vcd
$version Generated by VerilatedVcd $end
$date Tue Dec  5 12:12:43 2023 $end
$timescale 1ps $end

 $scope module TOP $end
  $var wire 32 * JRet_o [31:0] $end
  $var wire  1 ) JumpSrc $end
  $var wire  1 + PCSrc $end
  $var wire 32 . WD3 [31:0] $end
  $var wire  1 & clk $end
  $var wire 32 - instr [31:0] $end
  $var wire 32 , result [31:0] $end
  $var wire  1 ' rst $end
  $var wire  1 ( trigger $end
  $scope module InstructionMemory $end
   $var wire 32 0 DATA_WIDTH [31:0] $end
   $var wire 32 * JRet_o [31:0] $end
   $var wire  1 ) JumpSrc $end
   $var wire  1 + PCSrc $end
   $var wire 32 % PC_next [31:0] $end
   $var wire 32 . WD3 [31:0] $end
   $var wire  1 & clk $end
   $var wire 32 $ inc_pc [31:0] $end
   $var wire 32 - instr [31:0] $end
   $var wire 32 # next [31:0] $end
   $var wire 32 / pc_wire [31:0] $end
   $var wire 32 , result [31:0] $end
   $var wire  1 ' rst $end
   $var wire  1 ( trigger $end
   $scope module InstructionMem $end
    $var wire 32 0 ADDRESS_WIDTH [31:0] $end
    $var wire 32 1 DATA_WIDTH [31:0] $end
    $var wire 32 / addr [31:0] $end
    $var wire 32 - dout [31:0] $end
   $upscope $end
   $scope module pc_reg $end
    $var wire 32 / PC [31:0] $end
    $var wire 32 # PCNext [31:0] $end
    $var wire 32 0 WIDTH [31:0] $end
    $var wire  1 & clk $end
    $var wire  1 ' rst $end
   $upscope $end
  $upscope $end
 $upscope $end
$enddefinitions $end


#0
b00000000000000000000000000000000 #
b00000000000000000000000000000000 $
b00000000000000000000000000000000 %
0&
0'
1(
0)
b00000000000000000000000000000000 *
0+
b00000000000000000000000000000000 ,
b00000000000000000000000000000000 -
b00000000000000000000000000000000 .
b00000000000000000000000000000000 /
b00000000000000000000000000100000 0
b00000000000000000000000000001000 1
#1
b00000000000000000000000000000100 #
b00000000000000000000000000000100 $
b00000000000000000000000000000100 %
1&
b00010011000000111111000000001111 -
#2
0&
#3
b00000000000000000000000000001000 #
b00000000000000000000000000001000 $
b00000000000000000000000000001000 %
1&
b00010011000001010000000000000000 -
b00000000000000000000000000000100 /
#4
0&
#5
b00000000000000000000000000001100 #
b00000000000000000000000000001100 $
b00000000000000000000000000001100 %
1&
b10010011000001010000000000000000 -
b00000000000000000000000000001000 /
#6
0&
#7
b00000000000000000000000000010000 #
b00000000000000000000000000010000 $
b00000000000000000000000000010000 %
1&
b00010011100001010000010100000000 -
b00000000000000000000000000001100 /
#8
0&
#9
b00000000000000000000000000010100 #
b00000000000000000000000000010100 $
b00000000000000000000000000010100 %
1&
b10010011100001010001010100000000 -
b00000000000000000000000000010000 /
#10
0&
#11
b00000000000000000000000000011000 #
b00000000000000000000000000011000 $
b00000000000000000000000000011000 %
1&
b11100011100111000110010111111110 -
b00000000000000000000000000010100 /
#12
0&
#13
b00000000000000000000000000011100 #
b00000000000000000000000000011100 $
b00000000000000000000000000011100 %
1&
b00000000000110000000001111111110 -
b00000000000000000000000000011000 /
#14
0&
#15
b00000000000000000000000000100000 #
b00000000000000000000000000100000 $
b00000000000000000000000000100000 %
1&
b00000000000000000000000000000000 -
b00000000000000000000000000011100 /
#16
0&
#17
b00000000000000000000000000100100 #
b00000000000000000000000000100100 $
b00000000000000000000000000100100 %
1&
b00000000000000000000000000100000 /
#18
0&
#19
b00000000000000000000000000101000 #
b00000000000000000000000000101000 $
b00000000000000000000000000101000 %
1&
b00000000000000000000000000100100 /
#20
0&
#21
b00000000000000000000000000101100 #
b00000000000000000000000000101100 $
b00000000000000000000000000101100 %
1&
b00000000000000000000000000101000 /
#22
0&
#23
b00000000000000000000000000110000 #
b00000000000000000000000000110000 $
b00000000000000000000000000110000 %
1&
b00000000000000000000000000101100 /
#24
0&
#25
b00000000000000000000000000110100 #
b00000000000000000000000000110100 $
b00000000000000000000000000110100 %
1&
b00000000000000000000000000110000 /
#26
0&
#27
b00000000000000000000000000111000 #
b00000000000000000000000000111000 $
b00000000000000000000000000111000 %
1&
b00000000000000000000000000110100 /
#28
0&
#29
b00000000000000000000000000111100 #
b00000000000000000000000000111100 $
b00000000000000000000000000111100 %
1&
b00000000000000000000000000111000 /
#30
0&
#31
b00000000000000000000000001000000 #
b00000000000000000000000001000000 $
b00000000000000000000000001000000 %
1&
b00000000000000000000000000111100 /
#32
0&
#33
b00000000000000000000000001000100 #
b00000000000000000000000001000100 $
b00000000000000000000000001000100 %
1&
b00000000000000000000000001000000 /
#34
0&
#35
b00000000000000000000000001001000 #
b00000000000000000000000001001000 $
b00000000000000000000000001001000 %
1&
b00000000000000000000000001000100 /
#36
0&
#37
b00000000000000000000000001001100 #
b00000000000000000000000001001100 $
b00000000000000000000000001001100 %
1&
b00000000000000000000000001001000 /
#38
0&
#39
b00000000000000000000000001010000 #
b00000000000000000000000001010000 $
b00000000000000000000000001010000 %
1&
b00000000000000000000000001001100 /
#40
0&
#41
b00000000000000000000000001010100 #
b00000000000000000000000001010100 $
b00000000000000000000000001010100 %
1&
b00000000000000000000000001010000 /
#42
0&
#43
b00000000000000000000000001011000 #
b00000000000000000000000001011000 $
b00000000000000000000000001011000 %
1&
b00000000000000000000000001010100 /
#44
0&
#45
b00000000000000000000000001011100 #
b00000000000000000000000001011100 $
b00000000000000000000000001011100 %
1&
b00000000000000000000000001011000 /
#46
0&
#47
b00000000000000000000000001100000 #
b00000000000000000000000001100000 $
b00000000000000000000000001100000 %
1&
b00000000000000000000000001011100 /
#48
0&
#49
b00000000000000000000000001100100 #
b00000000000000000000000001100100 $
b00000000000000000000000001100100 %
1&
b00000000000000000000000001100000 /
#50
0&
#51
b00000000000000000000000001101000 #
b00000000000000000000000001101000 $
b00000000000000000000000001101000 %
1&
b00000000000000000000000001100100 /
#52
0&
#53
b00000000000000000000000001101100 #
b00000000000000000000000001101100 $
b00000000000000000000000001101100 %
1&
b00000000000000000000000001101000 /
#54
0&
#55
b00000000000000000000000001110000 #
b00000000000000000000000001110000 $
b00000000000000000000000001110000 %
1&
b00000000000000000000000001101100 /
#56
0&
#57
b00000000000000000000000001110100 #
b00000000000000000000000001110100 $
b00000000000000000000000001110100 %
1&
b00000000000000000000000001110000 /
#58
0&
#59
b00000000000000000000000001111000 #
b00000000000000000000000001111000 $
b00000000000000000000000001111000 %
1&
b00000000000000000000000001110100 /
#60
0&
#61
b00000000000000000000000001111100 #
b00000000000000000000000001111100 $
b00000000000000000000000001111100 %
1&
b00000000000000000000000001111000 /
#62
0&
#63
b00000000000000000000000010000000 #
b00000000000000000000000010000000 $
b00000000000000000000000010000000 %
1&
b00000000000000000000000001111100 /
#64
0&
#65
b00000000000000000000000010000100 #
b00000000000000000000000010000100 $
b00000000000000000000000010000100 %
1&
b00000000000000000000000010000000 /
#66
0&
#67
b00000000000000000000000010001000 #
b00000000000000000000000010001000 $
b00000000000000000000000010001000 %
1&
b00000000000000000000000010000100 /
#68
0&
#69
b00000000000000000000000010001100 #
b00000000000000000000000010001100 $
b00000000000000000000000010001100 %
1&
b00000000000000000000000010001000 /
#70
0&
#71
b00000000000000000000000010010000 #
b00000000000000000000000010010000 $
b00000000000000000000000010010000 %
1&
b00000000000000000000000010001100 /
#72
0&
#73
b00000000000000000000000010010100 #
b00000000000000000000000010010100 $
b00000000000000000000000010010100 %
1&
b00000000000000000000000010010000 /
#74
0&
#75
b00000000000000000000000010011000 #
b00000000000000000000000010011000 $
b00000000000000000000000010011000 %
1&
b00000000000000000000000010010100 /
#76
0&
#77
b00000000000000000000000010011100 #
b00000000000000000000000010011100 $
b00000000000000000000000010011100 %
1&
b00000000000000000000000010011000 /
#78
0&
#79
b00000000000000000000000010100000 #
b00000000000000000000000010100000 $
b00000000000000000000000010100000 %
1&
b00000000000000000000000010011100 /
#80
0&
#81
b00000000000000000000000010100100 #
b00000000000000000000000010100100 $
b00000000000000000000000010100100 %
1&
b00000000000000000000000010100000 /
#82
0&
#83
b00000000000000000000000010101000 #
b00000000000000000000000010101000 $
b00000000000000000000000010101000 %
1&
b00000000000000000000000010100100 /
#84
0&
#85
b00000000000000000000000010101100 #
b00000000000000000000000010101100 $
b00000000000000000000000010101100 %
1&
b00000000000000000000000010101000 /
#86
0&
#87
b00000000000000000000000010110000 #
b00000000000000000000000010110000 $
b00000000000000000000000010110000 %
1&
b00000000000000000000000010101100 /
#88
0&
#89
b00000000000000000000000010110100 #
b00000000000000000000000010110100 $
b00000000000000000000000010110100 %
1&
b00000000000000000000000010110000 /
#90
0&
#91
b00000000000000000000000010111000 #
b00000000000000000000000010111000 $
b00000000000000000000000010111000 %
1&
b00000000000000000000000010110100 /
#92
0&
#93
b00000000000000000000000010111100 #
b00000000000000000000000010111100 $
b00000000000000000000000010111100 %
1&
b00000000000000000000000010111000 /
#94
0&
#95
b00000000000000000000000011000000 #
b00000000000000000000000011000000 $
b00000000000000000000000011000000 %
1&
b00000000000000000000000010111100 /
#96
0&
#97
b00000000000000000000000011000100 #
b00000000000000000000000011000100 $
b00000000000000000000000011000100 %
1&
b00000000000000000000000011000000 /
#98
0&
#99
b00000000000000000000000011001000 #
b00000000000000000000000011001000 $
b00000000000000000000000011001000 %
1&
b00000000000000000000000011000100 /
#100
0&
#101
b00000000000000000000000011001100 #
b00000000000000000000000011001100 $
b00000000000000000000000011001100 %
1&
b00000000000000000000000011001000 /
#102
0&
#103
b00000000000000000000000011010000 #
b00000000000000000000000011010000 $
b00000000000000000000000011010000 %
1&
b00000000000000000000000011001100 /
#104
0&
#105
b00000000000000000000000011010100 #
b00000000000000000000000011010100 $
b00000000000000000000000011010100 %
1&
b00000000000000000000000011010000 /
#106
0&
#107
b00000000000000000000000011011000 #
b00000000000000000000000011011000 $
b00000000000000000000000011011000 %
1&
b00000000000000000000000011010100 /
#108
0&
#109
b00000000000000000000000011011100 #
b00000000000000000000000011011100 $
b00000000000000000000000011011100 %
1&
b00000000000000000000000011011000 /
#110
0&
#111
b00000000000000000000000011100000 #
b00000000000000000000000011100000 $
b00000000000000000000000011100000 %
1&
b00000000000000000000000011011100 /
#112
0&
#113
b00000000000000000000000011100100 #
b00000000000000000000000011100100 $
b00000000000000000000000011100100 %
1&
b00000000000000000000000011100000 /
#114
0&
#115
b00000000000000000000000011101000 #
b00000000000000000000000011101000 $
b00000000000000000000000011101000 %
1&
b00000000000000000000000011100100 /
#116
0&
#117
b00000000000000000000000011101100 #
b00000000000000000000000011101100 $
b00000000000000000000000011101100 %
1&
b00000000000000000000000011101000 /
#118
0&
#119
b00000000000000000000000011110000 #
b00000000000000000000000011110000 $
b00000000000000000000000011110000 %
1&
b00000000000000000000000011101100 /
#120
0&
#121
b00000000000000000000000011110100 #
b00000000000000000000000011110100 $
b00000000000000000000000011110100 %
1&
b00000000000000000000000011110000 /
#122
0&
#123
b00000000000000000000000011111000 #
b00000000000000000000000011111000 $
b00000000000000000000000011111000 %
1&
b00000000000000000000000011110100 /
#124
0&
#125
b00000000000000000000000011111100 #
b00000000000000000000000011111100 $
b00000000000000000000000011111100 %
1&
b00000000000000000000000011111000 /
#126
0&
#127
b00000000000000000000000100000000 #
b00000000000000000000000100000000 $
b00000000000000000000000100000000 %
1&
b00000000000000000000000011111100 /
#128
0&
#129
b00000000000000000000000100000100 #
b00000000000000000000000100000100 $
b00000000000000000000000100000100 %
1&
b00000000000000000000000100000000 /
#130
0&
#131
b00000000000000000000000100001000 #
b00000000000000000000000100001000 $
b00000000000000000000000100001000 %
1&
b00000000000000000000000100000100 /
#132
0&
#133
b00000000000000000000000100001100 #
b00000000000000000000000100001100 $
b00000000000000000000000100001100 %
1&
b00000000000000000000000100001000 /
#134
0&
#135
b00000000000000000000000100010000 #
b00000000000000000000000100010000 $
b00000000000000000000000100010000 %
1&
b00000000000000000000000100001100 /
#136
0&
#137
b00000000000000000000000100010100 #
b00000000000000000000000100010100 $
b00000000000000000000000100010100 %
1&
b00000000000000000000000100010000 /
#138
0&
#139
b00000000000000000000000100011000 #
b00000000000000000000000100011000 $
b00000000000000000000000100011000 %
1&
b00000000000000000000000100010100 /
#140
0&
#141
b00000000000000000000000100011100 #
b00000000000000000000000100011100 $
b00000000000000000000000100011100 %
1&
b00000000000000000000000100011000 /
#142
0&
#143
b00000000000000000000000100100000 #
b00000000000000000000000100100000 $
b00000000000000000000000100100000 %
1&
b00000000000000000000000100011100 /
#144
0&
#145
b00000000000000000000000100100100 #
b00000000000000000000000100100100 $
b00000000000000000000000100100100 %
1&
b00000000000000000000000100100000 /
#146
0&
#147
b00000000000000000000000100101000 #
b00000000000000000000000100101000 $
b00000000000000000000000100101000 %
1&
b00000000000000000000000100100100 /
#148
0&
#149
b00000000000000000000000100101100 #
b00000000000000000000000100101100 $
b00000000000000000000000100101100 %
1&
b00000000000000000000000100101000 /
#150
0&
#151
b00000000000000000000000100110000 #
b00000000000000000000000100110000 $
b00000000000000000000000100110000 %
1&
b00000000000000000000000100101100 /
#152
0&
#153
b00000000000000000000000100110100 #
b00000000000000000000000100110100 $
b00000000000000000000000100110100 %
1&
b00000000000000000000000100110000 /
#154
0&
#155
b00000000000000000000000100111000 #
b00000000000000000000000100111000 $
b00000000000000000000000100111000 %
1&
b00000000000000000000000100110100 /
#156
0&
#157
b00000000000000000000000100111100 #
b00000000000000000000000100111100 $
b00000000000000000000000100111100 %
1&
b00000000000000000000000100111000 /
#158
0&
#159
b00000000000000000000000101000000 #
b00000000000000000000000101000000 $
b00000000000000000000000101000000 %
1&
b00000000000000000000000100111100 /
#160
0&
#161
b00000000000000000000000101000100 #
b00000000000000000000000101000100 $
b00000000000000000000000101000100 %
1&
b00000000000000000000000101000000 /
#162
0&
#163
b00000000000000000000000101001000 #
b00000000000000000000000101001000 $
b00000000000000000000000101001000 %
1&
b00000000000000000000000101000100 /
#164
0&
#165
b00000000000000000000000101001100 #
b00000000000000000000000101001100 $
b00000000000000000000000101001100 %
1&
b00000000000000000000000101001000 /
#166
0&
#167
b00000000000000000000000101010000 #
b00000000000000000000000101010000 $
b00000000000000000000000101010000 %
1&
b00000000000000000000000101001100 /
#168
0&
#169
b00000000000000000000000101010100 #
b00000000000000000000000101010100 $
b00000000000000000000000101010100 %
1&
b00000000000000000000000101010000 /
#170
0&
#171
b00000000000000000000000101011000 #
b00000000000000000000000101011000 $
b00000000000000000000000101011000 %
1&
b00000000000000000000000101010100 /
#172
0&
#173
b00000000000000000000000101011100 #
b00000000000000000000000101011100 $
b00000000000000000000000101011100 %
1&
b00000000000000000000000101011000 /
#174
0&
#175
b00000000000000000000000101100000 #
b00000000000000000000000101100000 $
b00000000000000000000000101100000 %
1&
b00000000000000000000000101011100 /
#176
0&
#177
b00000000000000000000000101100100 #
b00000000000000000000000101100100 $
b00000000000000000000000101100100 %
1&
b00000000000000000000000101100000 /
#178
0&
#179
b00000000000000000000000101101000 #
b00000000000000000000000101101000 $
b00000000000000000000000101101000 %
1&
b00000000000000000000000101100100 /
#180
0&
#181
b00000000000000000000000101101100 #
b00000000000000000000000101101100 $
b00000000000000000000000101101100 %
1&
b00000000000000000000000101101000 /
#182
0&
#183
b00000000000000000000000101110000 #
b00000000000000000000000101110000 $
b00000000000000000000000101110000 %
1&
b00000000000000000000000101101100 /
#184
0&
#185
b00000000000000000000000101110100 #
b00000000000000000000000101110100 $
b00000000000000000000000101110100 %
1&
b00000000000000000000000101110000 /
#186
0&
#187
b00000000000000000000000101111000 #
b00000000000000000000000101111000 $
b00000000000000000000000101111000 %
1&
b00000000000000000000000101110100 /
#188
0&
#189
b00000000000000000000000101111100 #
b00000000000000000000000101111100 $
b00000000000000000000000101111100 %
1&
b00000000000000000000000101111000 /
#190
0&
#191
b00000000000000000000000110000000 #
b00000000000000000000000110000000 $
b00000000000000000000000110000000 %
1&
b00000000000000000000000101111100 /
#192
0&
#193
b00000000000000000000000110000100 #
b00000000000000000000000110000100 $
b00000000000000000000000110000100 %
1&
b00000000000000000000000110000000 /
#194
0&
#195
b00000000000000000000000110001000 #
b00000000000000000000000110001000 $
b00000000000000000000000110001000 %
1&
b00000000000000000000000110000100 /
#196
0&
#197
b00000000000000000000000110001100 #
b00000000000000000000000110001100 $
b00000000000000000000000110001100 %
1&
b00000000000000000000000110001000 /
#198
0&
#199
b00000000000000000000000110010000 #
b00000000000000000000000110010000 $
b00000000000000000000000110010000 %
1&
b00000000000000000000000110001100 /
#200
0&
#201
b00000000000000000000000110010100 #
b00000000000000000000000110010100 $
b00000000000000000000000110010100 %
1&
b00000000000000000000000110010000 /
#202
0&
#203
b00000000000000000000000110011000 #
b00000000000000000000000110011000 $
b00000000000000000000000110011000 %
1&
b00000000000000000000000110010100 /
#204
0&
#205
b00000000000000000000000110011100 #
b00000000000000000000000110011100 $
b00000000000000000000000110011100 %
1&
b00000000000000000000000110011000 /
#206
0&
#207
b00000000000000000000000110100000 #
b00000000000000000000000110100000 $
b00000000000000000000000110100000 %
1&
b00000000000000000000000110011100 /
#208
0&
#209
b00000000000000000000000110100100 #
b00000000000000000000000110100100 $
b00000000000000000000000110100100 %
1&
b00000000000000000000000110100000 /
#210
0&
#211
b00000000000000000000000110101000 #
b00000000000000000000000110101000 $
b00000000000000000000000110101000 %
1&
b00000000000000000000000110100100 /
#212
0&
#213
b00000000000000000000000110101100 #
b00000000000000000000000110101100 $
b00000000000000000000000110101100 %
1&
b00000000000000000000000110101000 /
#214
0&
#215
b00000000000000000000000110110000 #
b00000000000000000000000110110000 $
b00000000000000000000000110110000 %
1&
b00000000000000000000000110101100 /
#216
0&
#217
b00000000000000000000000110110100 #
b00000000000000000000000110110100 $
b00000000000000000000000110110100 %
1&
b00000000000000000000000110110000 /
#218
0&
#219
b00000000000000000000000110111000 #
b00000000000000000000000110111000 $
b00000000000000000000000110111000 %
1&
b00000000000000000000000110110100 /
#220
0&
#221
b00000000000000000000000110111100 #
b00000000000000000000000110111100 $
b00000000000000000000000110111100 %
1&
b00000000000000000000000110111000 /
#222
0&
#223
b00000000000000000000000111000000 #
b00000000000000000000000111000000 $
b00000000000000000000000111000000 %
1&
b00000000000000000000000110111100 /
#224
0&
#225
b00000000000000000000000111000100 #
b00000000000000000000000111000100 $
b00000000000000000000000111000100 %
1&
b00000000000000000000000111000000 /
#226
0&
#227
b00000000000000000000000111001000 #
b00000000000000000000000111001000 $
b00000000000000000000000111001000 %
1&
b00000000000000000000000111000100 /
#228
0&
#229
b00000000000000000000000111001100 #
b00000000000000000000000111001100 $
b00000000000000000000000111001100 %
1&
b00000000000000000000000111001000 /
#230
0&
#231
b00000000000000000000000111010000 #
b00000000000000000000000111010000 $
b00000000000000000000000111010000 %
1&
b00000000000000000000000111001100 /
#232
0&
#233
b00000000000000000000000111010100 #
b00000000000000000000000111010100 $
b00000000000000000000000111010100 %
1&
b00000000000000000000000111010000 /
#234
0&
#235
b00000000000000000000000111011000 #
b00000000000000000000000111011000 $
b00000000000000000000000111011000 %
1&
b00000000000000000000000111010100 /
#236
0&
#237
b00000000000000000000000111011100 #
b00000000000000000000000111011100 $
b00000000000000000000000111011100 %
1&
b00000000000000000000000111011000 /
#238
0&
#239
b00000000000000000000000111100000 #
b00000000000000000000000111100000 $
b00000000000000000000000111100000 %
1&
b00000000000000000000000111011100 /
#240
0&
#241
b00000000000000000000000111100100 #
b00000000000000000000000111100100 $
b00000000000000000000000111100100 %
1&
b00000000000000000000000111100000 /
#242
0&
#243
b00000000000000000000000111101000 #
b00000000000000000000000111101000 $
b00000000000000000000000111101000 %
1&
b00000000000000000000000111100100 /
#244
0&
#245
b00000000000000000000000111101100 #
b00000000000000000000000111101100 $
b00000000000000000000000111101100 %
1&
b00000000000000000000000111101000 /
#246
0&
#247
b00000000000000000000000111110000 #
b00000000000000000000000111110000 $
b00000000000000000000000111110000 %
1&
b00000000000000000000000111101100 /
#248
0&
#249
b00000000000000000000000111110100 #
b00000000000000000000000111110100 $
b00000000000000000000000111110100 %
1&
b00000000000000000000000111110000 /
#250
0&
#251
b00000000000000000000000111111000 #
b00000000000000000000000111111000 $
b00000000000000000000000111111000 %
1&
b00000000000000000000000111110100 /
#252
0&
#253
b00000000000000000000000111111100 #
b00000000000000000000000111111100 $
b00000000000000000000000111111100 %
1&
b00000000000000000000000111111000 /
#254
0&
#255
b00000000000000000000001000000000 #
b00000000000000000000001000000000 $
b00000000000000000000001000000000 %
1&
b00000000000000000000000111111100 /
#256
0&
#257
b00000000000000000000001000000100 #
b00000000000000000000001000000100 $
b00000000000000000000001000000100 %
1&
b00000000000000000000001000000000 /
#258
0&
#259
b00000000000000000000001000001000 #
b00000000000000000000001000001000 $
b00000000000000000000001000001000 %
1&
b00000000000000000000001000000100 /
#260
0&
#261
b00000000000000000000001000001100 #
b00000000000000000000001000001100 $
b00000000000000000000001000001100 %
1&
b00000000000000000000001000001000 /
#262
0&
#263
b00000000000000000000001000010000 #
b00000000000000000000001000010000 $
b00000000000000000000001000010000 %
1&
b00000000000000000000001000001100 /
#264
0&
#265
b00000000000000000000001000010100 #
b00000000000000000000001000010100 $
b00000000000000000000001000010100 %
1&
b00000000000000000000001000010000 /
#266
0&
#267
b00000000000000000000001000011000 #
b00000000000000000000001000011000 $
b00000000000000000000001000011000 %
1&
b00000000000000000000001000010100 /
#268
0&
#269
b00000000000000000000001000011100 #
b00000000000000000000001000011100 $
b00000000000000000000001000011100 %
1&
b00000000000000000000001000011000 /
#270
0&
#271
b00000000000000000000001000100000 #
b00000000000000000000001000100000 $
b00000000000000000000001000100000 %
1&
b00000000000000000000001000011100 /
#272
0&
#273
b00000000000000000000001000100100 #
b00000000000000000000001000100100 $
b00000000000000000000001000100100 %
1&
b00000000000000000000001000100000 /
#274
0&
#275
b00000000000000000000001000101000 #
b00000000000000000000001000101000 $
b00000000000000000000001000101000 %
1&
b00000000000000000000001000100100 /
#276
0&
#277
b00000000000000000000001000101100 #
b00000000000000000000001000101100 $
b00000000000000000000001000101100 %
1&
b00000000000000000000001000101000 /
#278
0&
#279
b00000000000000000000001000110000 #
b00000000000000000000001000110000 $
b00000000000000000000001000110000 %
1&
b00000000000000000000001000101100 /
#280
0&
#281
b00000000000000000000001000110100 #
b00000000000000000000001000110100 $
b00000000000000000000001000110100 %
1&
b00000000000000000000001000110000 /
#282
0&
#283
b00000000000000000000001000111000 #
b00000000000000000000001000111000 $
b00000000000000000000001000111000 %
1&
b00000000000000000000001000110100 /
#284
0&
#285
b00000000000000000000001000111100 #
b00000000000000000000001000111100 $
b00000000000000000000001000111100 %
1&
b00000000000000000000001000111000 /
#286
0&
#287
b00000000000000000000001001000000 #
b00000000000000000000001001000000 $
b00000000000000000000001001000000 %
1&
b00000000000000000000001000111100 /
#288
0&
#289
b00000000000000000000001001000100 #
b00000000000000000000001001000100 $
b00000000000000000000001001000100 %
1&
b00000000000000000000001001000000 /
#290
0&
#291
b00000000000000000000001001001000 #
b00000000000000000000001001001000 $
b00000000000000000000001001001000 %
1&
b00000000000000000000001001000100 /
#292
0&
#293
b00000000000000000000001001001100 #
b00000000000000000000001001001100 $
b00000000000000000000001001001100 %
1&
b00000000000000000000001001001000 /
#294
0&
#295
b00000000000000000000001001010000 #
b00000000000000000000001001010000 $
b00000000000000000000001001010000 %
1&
b00000000000000000000001001001100 /
#296
0&
#297
b00000000000000000000001001010100 #
b00000000000000000000001001010100 $
b00000000000000000000001001010100 %
1&
b00000000000000000000001001010000 /
#298
0&
#299
b00000000000000000000001001011000 #
b00000000000000000000001001011000 $
b00000000000000000000001001011000 %
1&
b00000000000000000000001001010100 /
#300
0&
#301
b00000000000000000000001001011100 #
b00000000000000000000001001011100 $
b00000000000000000000001001011100 %
1&
b00000000000000000000001001011000 /
#302
0&
#303
b00000000000000000000001001100000 #
b00000000000000000000001001100000 $
b00000000000000000000001001100000 %
1&
b00000000000000000000001001011100 /
#304
0&
#305
b00000000000000000000001001100100 #
b00000000000000000000001001100100 $
b00000000000000000000001001100100 %
1&
b00000000000000000000001001100000 /
#306
0&
#307
b00000000000000000000001001101000 #
b00000000000000000000001001101000 $
b00000000000000000000001001101000 %
1&
b00000000000000000000001001100100 /
#308
0&
#309
b00000000000000000000001001101100 #
b00000000000000000000001001101100 $
b00000000000000000000001001101100 %
1&
b00000000000000000000001001101000 /
#310
0&
#311
b00000000000000000000001001110000 #
b00000000000000000000001001110000 $
b00000000000000000000001001110000 %
1&
b00000000000000000000001001101100 /
#312
0&
#313
b00000000000000000000001001110100 #
b00000000000000000000001001110100 $
b00000000000000000000001001110100 %
1&
b00000000000000000000001001110000 /
#314
0&
#315
b00000000000000000000001001111000 #
b00000000000000000000001001111000 $
b00000000000000000000001001111000 %
1&
b00000000000000000000001001110100 /
#316
0&
#317
b00000000000000000000001001111100 #
b00000000000000000000001001111100 $
b00000000000000000000001001111100 %
1&
b00000000000000000000001001111000 /
#318
0&
#319
b00000000000000000000001010000000 #
b00000000000000000000001010000000 $
b00000000000000000000001010000000 %
1&
b00000000000000000000001001111100 /
#320
0&
#321
b00000000000000000000001010000100 #
b00000000000000000000001010000100 $
b00000000000000000000001010000100 %
1&
b00000000000000000000001010000000 /
#322
0&
#323
b00000000000000000000001010001000 #
b00000000000000000000001010001000 $
b00000000000000000000001010001000 %
1&
b00000000000000000000001010000100 /
#324
0&
#325
b00000000000000000000001010001100 #
b00000000000000000000001010001100 $
b00000000000000000000001010001100 %
1&
b00000000000000000000001010001000 /
#326
0&
#327
b00000000000000000000001010010000 #
b00000000000000000000001010010000 $
b00000000000000000000001010010000 %
1&
b00000000000000000000001010001100 /
#328
0&
#329
b00000000000000000000001010010100 #
b00000000000000000000001010010100 $
b00000000000000000000001010010100 %
1&
b00000000000000000000001010010000 /
#330
0&
#331
b00000000000000000000001010011000 #
b00000000000000000000001010011000 $
b00000000000000000000001010011000 %
1&
b00000000000000000000001010010100 /
#332
0&
#333
b00000000000000000000001010011100 #
b00000000000000000000001010011100 $
b00000000000000000000001010011100 %
1&
b00000000000000000000001010011000 /
#334
0&
#335
b00000000000000000000001010100000 #
b00000000000000000000001010100000 $
b00000000000000000000001010100000 %
1&
b00000000000000000000001010011100 /
#336
0&
#337
b00000000000000000000001010100100 #
b00000000000000000000001010100100 $
b00000000000000000000001010100100 %
1&
b00000000000000000000001010100000 /
#338
0&
#339
b00000000000000000000001010101000 #
b00000000000000000000001010101000 $
b00000000000000000000001010101000 %
1&
b00000000000000000000001010100100 /
#340
0&
#341
b00000000000000000000001010101100 #
b00000000000000000000001010101100 $
b00000000000000000000001010101100 %
1&
b00000000000000000000001010101000 /
#342
0&
#343
b00000000000000000000001010110000 #
b00000000000000000000001010110000 $
b00000000000000000000001010110000 %
1&
b00000000000000000000001010101100 /
#344
0&
#345
b00000000000000000000001010110100 #
b00000000000000000000001010110100 $
b00000000000000000000001010110100 %
1&
b00000000000000000000001010110000 /
#346
0&
#347
b00000000000000000000001010111000 #
b00000000000000000000001010111000 $
b00000000000000000000001010111000 %
1&
b00000000000000000000001010110100 /
#348
0&
#349
b00000000000000000000001010111100 #
b00000000000000000000001010111100 $
b00000000000000000000001010111100 %
1&
b00000000000000000000001010111000 /
#350
0&
#351
b00000000000000000000001011000000 #
b00000000000000000000001011000000 $
b00000000000000000000001011000000 %
1&
b00000000000000000000001010111100 /
#352
0&
#353
b00000000000000000000001011000100 #
b00000000000000000000001011000100 $
b00000000000000000000001011000100 %
1&
b00000000000000000000001011000000 /
#354
0&
#355
b00000000000000000000001011001000 #
b00000000000000000000001011001000 $
b00000000000000000000001011001000 %
1&
b00000000000000000000001011000100 /
#356
0&
#357
b00000000000000000000001011001100 #
b00000000000000000000001011001100 $
b00000000000000000000001011001100 %
1&
b00000000000000000000001011001000 /
#358
0&
#359
b00000000000000000000001011010000 #
b00000000000000000000001011010000 $
b00000000000000000000001011010000 %
1&
b00000000000000000000001011001100 /
#360
0&
#361
b00000000000000000000001011010100 #
b00000000000000000000001011010100 $
b00000000000000000000001011010100 %
1&
b00000000000000000000001011010000 /
#362
0&
#363
b00000000000000000000001011011000 #
b00000000000000000000001011011000 $
b00000000000000000000001011011000 %
1&
b00000000000000000000001011010100 /
#364
0&
#365
b00000000000000000000001011011100 #
b00000000000000000000001011011100 $
b00000000000000000000001011011100 %
1&
b00000000000000000000001011011000 /
#366
0&
#367
b00000000000000000000001011100000 #
b00000000000000000000001011100000 $
b00000000000000000000001011100000 %
1&
b00000000000000000000001011011100 /
#368
0&
#369
b00000000000000000000001011100100 #
b00000000000000000000001011100100 $
b00000000000000000000001011100100 %
1&
b00000000000000000000001011100000 /
#370
0&
#371
b00000000000000000000001011101000 #
b00000000000000000000001011101000 $
b00000000000000000000001011101000 %
1&
b00000000000000000000001011100100 /
#372
0&
#373
b00000000000000000000001011101100 #
b00000000000000000000001011101100 $
b00000000000000000000001011101100 %
1&
b00000000000000000000001011101000 /
#374
0&
#375
b00000000000000000000001011110000 #
b00000000000000000000001011110000 $
b00000000000000000000001011110000 %
1&
b00000000000000000000001011101100 /
#376
0&
#377
b00000000000000000000001011110100 #
b00000000000000000000001011110100 $
b00000000000000000000001011110100 %
1&
b00000000000000000000001011110000 /
#378
0&
#379
b00000000000000000000001011111000 #
b00000000000000000000001011111000 $
b00000000000000000000001011111000 %
1&
b00000000000000000000001011110100 /
#380
0&
#381
b00000000000000000000001011111100 #
b00000000000000000000001011111100 $
b00000000000000000000001011111100 %
1&
b00000000000000000000001011111000 /
#382
0&
#383
b00000000000000000000001100000000 #
b00000000000000000000001100000000 $
b00000000000000000000001100000000 %
1&
b00000000000000000000001011111100 /
#384
0&
#385
b00000000000000000000001100000100 #
b00000000000000000000001100000100 $
b00000000000000000000001100000100 %
1&
b00000000000000000000001100000000 /
#386
0&
