Vtop.vcd
$version Generated by VerilatedVcd $end
$date Mon Dec 11 17:14:19 2023
 $end
$timescale   1ps $end

 $scope module TOP $end
  $var wire 32 )! a0 [31:0] $end
  $var wire  1 '! clk $end
  $var wire  1 (! reset $end
  $scope module top $end
   $var wire 32 % ALUResultM_wire [31:0] $end
   $var wire 32 & ALUResultW_wire [31:0] $end
   $var wire  4 - ALUctrlE_wire [3:0] $end
   $var wire  1 9 ALUsrcE_wire $end
   $var wire  1 D BranchD_wire $end
   $var wire 32 $ ExtImmE_wire [31:0] $end
   $var wire  1 -! FlushE_wire $end
   $var wire  1 7 ForwardAD_wire $end
   $var wire  2 3 ForwardAE_wire [1:0] $end
   $var wire  1 8 ForwardBD_wire $end
   $var wire  2 4 ForwardBE_wire [1:0] $end
   $var wire 32 # InstrD_wire [31:0] $end
   $var wire  1 5 MemWriteE_wire $end
   $var wire  1 6 MemWriteM_wire $end
   $var wire 32 *! PCBranchD_wire [31:0] $end
   $var wire 32 ) PCPlus4D_wire [31:0] $end
   $var wire  1 "! PCSrcD_wire $end
   $var wire 32 + RD1E_wire [31:0] $end
   $var wire 32 , RD2E_wire [31:0] $end
   $var wire  5 < RdE_wire [4:0] $end
   $var wire  5 = RdM_wire [4:0] $end
   $var wire  5 > RdW_wire [4:0] $end
   $var wire 32 ( ReadDataW_wire [31:0] $end
   $var wire  1 . RegWriteE_wire $end
   $var wire  1 / RegWriteM_wire $end
   $var wire  1 0 RegWriteW_wire $end
   $var wire  1 A ResultSrcE_wire $end
   $var wire  1 B ResultSrcM_wire $end
   $var wire  1 C ResultSrcW_wire $end
   $var wire 32 ' ResultW_wire [31:0] $end
   $var wire  5 ? Rs1D_wire [4:0] $end
   $var wire  5 : Rs1E_wire [4:0] $end
   $var wire  5 @ Rs2D_wire [4:0] $end
   $var wire  5 ; Rs2E_wire [4:0] $end
   $var wire  1 2 StallD_wire $end
   $var wire  1 1 StallF_wire $end
   $var wire 32 * WriteDataM_wire [31:0] $end
   $var wire 32 )! a0 [31:0] $end
   $var wire  1 '! clk $end
   $var wire  1 (! reset $end
   $scope module Decode_Stage $end
    $var wire 32 % ALUOutM [31:0] $end
    $var wire  1 G ALUSrc_wire $end
    $var wire  4 - ALUctrlE [3:0] $end
    $var wire  4 F ALUctrl_wire [3:0] $end
    $var wire  1 9 ALUsrcE $end
    $var wire  1 M BEQ_wire $end
    $var wire  1 N BNE_wire $end
    $var wire  1 D BranchD $end
    $var wire  1 0! BranchD_wire $end
    $var wire 32 P ExtImmDReg_wire [31:0] $end
    $var wire 32 O ExtImmD_wire [31:0] $end
    $var wire 32 $ ExtImmE [31:0] $end
    $var wire  1 -! FlushE $end
    $var wire  1 7 ForwardAD $end
    $var wire 32 %! ForwardAD_MUX [31:0] $end
    $var wire  1 8 ForwardBD $end
    $var wire 32 &! ForwardBD_MUX [31:0] $end
    $var wire  3 H ImmSrc_wire [2:0] $end
    $var wire 32 # InstrD [31:0] $end
    $var wire  1 L JRetSrc_wire $end
    $var wire  1 K JumpSrc_wire $end
    $var wire  1 5 MemWriteE $end
    $var wire  1 I MemWrite_wire $end
    $var wire 32 *! PCBranchD [31:0] $end
    $var wire 32 ) PCPlus4D [31:0] $end
    $var wire  1 "! PCSrcD $end
    $var wire 32 #! RD1D_wire [31:0] $end
    $var wire 32 + RD1E [31:0] $end
    $var wire 32 $! RD2D_wire [31:0] $end
    $var wire 32 , RD2E [31:0] $end
    $var wire  5 < RdE [4:0] $end
    $var wire  5 > RdW [4:0] $end
    $var wire  1 . RegWriteE $end
    $var wire  1 0 RegWriteW $end
    $var wire  1 E RegWrite_wire $end
    $var wire  1 A ResultSrcE $end
    $var wire  1 J ResultSrc_wire $end
    $var wire 32 ' ResultW [31:0] $end
    $var wire  5 ? Rs1D [4:0] $end
    $var wire  5 : Rs1E [4:0] $end
    $var wire  5 @ Rs2D [4:0] $end
    $var wire  5 ; Rs2E [4:0] $end
    $var wire 32 )! a0 [31:0] $end
    $var wire  1 '! clk $end
    $scope module ControlUnit $end
     $var wire  4 F ALUctrl [3:0] $end
     $var wire  1 G ALUsrc $end
     $var wire  1 M BEQ $end
     $var wire  1 N BNE $end
     $var wire  3 H ImmSrc [2:0] $end
     $var wire  1 L JRetSrc $end
     $var wire  1 K JumpSrc $end
     $var wire  1 I MemWrite $end
     $var wire  1 E RegWrite $end
     $var wire  1 J ResultSrc $end
     $var wire  3 R funct3 [2:0] $end
     $var wire  1 S funct7 $end
     $var wire  7 Q opcode [6:0] $end
     $scope module unnamedblk1 $end
      $var wire  7 T Type_O [6:0] $end
     $upscope $end
    $upscope $end
    $scope module Pipeline_RegisterD $end
     $var wire  4 F ALUctrlD [3:0] $end
     $var wire  4 - ALUctrlE [3:0] $end
     $var wire  1 G ALUsrcD $end
     $var wire  1 9 ALUsrcE $end
     $var wire 32 P ExtImmD [31:0] $end
     $var wire 32 $ ExtImmE [31:0] $end
     $var wire  1 -! FlushE $end
     $var wire  1 I MemWriteD $end
     $var wire  1 5 MemWriteE $end
     $var wire 32 #! RD1D [31:0] $end
     $var wire 32 + RD1E [31:0] $end
     $var wire 32 $! RD2D [31:0] $end
     $var wire 32 , RD2E [31:0] $end
     $var wire  5 V RdD [4:0] $end
     $var wire  5 < RdE [4:0] $end
     $var wire  1 E RegWriteD $end
     $var wire  1 . RegWriteE $end
     $var wire  1 J ResultSrcD $end
     $var wire  1 A ResultSrcE $end
     $var wire  5 ? Rs1D [4:0] $end
     $var wire  5 : Rs1E [4:0] $end
     $var wire  5 @ Rs2D [4:0] $end
     $var wire  5 ; Rs2E [4:0] $end
     $var wire  1 '! clk $end
    $upscope $end
    $scope module RegisterFile $end
     $var wire  5 ? AD1 [4:0] $end
     $var wire  5 @ AD2 [4:0] $end
     $var wire  5 > AD3 [4:0] $end
     $var wire 32 1! ADDRESS_WIDTH [31:0] $end
     $var wire 32 .! DATA_WIDTH [31:0] $end
     $var wire 32 #! RD1 [31:0] $end
     $var wire 32 $! RD2 [31:0] $end
     $var wire 32 ' WD3 [31:0] $end
     $var wire  1 0 WE3 $end
     $var wire 32 )! a0 [31:0] $end
     $var wire  1 '! clk $end
     $var wire 32 ` registers(0) [31:0] $end
     $var wire 32 a registers(1) [31:0] $end
     $var wire 32 j registers(10) [31:0] $end
     $var wire 32 k registers(11) [31:0] $end
     $var wire 32 l registers(12) [31:0] $end
     $var wire 32 m registers(13) [31:0] $end
     $var wire 32 n registers(14) [31:0] $end
     $var wire 32 o registers(15) [31:0] $end
     $var wire 32 p registers(16) [31:0] $end
     $var wire 32 q registers(17) [31:0] $end
     $var wire 32 r registers(18) [31:0] $end
     $var wire 32 s registers(19) [31:0] $end
     $var wire 32 b registers(2) [31:0] $end
     $var wire 32 t registers(20) [31:0] $end
     $var wire 32 u registers(21) [31:0] $end
     $var wire 32 v registers(22) [31:0] $end
     $var wire 32 w registers(23) [31:0] $end
     $var wire 32 x registers(24) [31:0] $end
     $var wire 32 y registers(25) [31:0] $end
     $var wire 32 z registers(26) [31:0] $end
     $var wire 32 { registers(27) [31:0] $end
     $var wire 32 | registers(28) [31:0] $end
     $var wire 32 } registers(29) [31:0] $end
     $var wire 32 c registers(3) [31:0] $end
     $var wire 32 ~ registers(30) [31:0] $end
     $var wire 32 !! registers(31) [31:0] $end
     $var wire 32 d registers(4) [31:0] $end
     $var wire 32 e registers(5) [31:0] $end
     $var wire 32 f registers(6) [31:0] $end
     $var wire 32 g registers(7) [31:0] $end
     $var wire 32 h registers(8) [31:0] $end
     $var wire 32 i registers(9) [31:0] $end
    $upscope $end
    $scope module SignExtend $end
     $var wire 32 .! DATA_WIDTH [31:0] $end
     $var wire  3 H ImmSrc [2:0] $end
     $var wire 25 U Imm_i [31:7] $end
     $var wire 32 O Imm_o [31:0] $end
    $upscope $end
   $upscope $end
   $scope module Execute_Stage $end
    $var wire 32 % ALUResultM [31:0] $end
    $var wire  4 - ALUctrlE [3:0] $end
    $var wire  1 9 ALUsrcE $end
    $var wire 32 $ ExtImmE [31:0] $end
    $var wire  2 3 ForwardAE [1:0] $end
    $var wire  2 4 ForwardBE [1:0] $end
    $var wire  1 5 MemWriteE $end
    $var wire  1 6 MemWriteM $end
    $var wire 32 + RD1E [31:0] $end
    $var wire 32 , RD2E [31:0] $end
    $var wire  5 < RdE [4:0] $end
    $var wire  5 = RdM [4:0] $end
    $var wire  1 . RegWriteE $end
    $var wire  1 / RegWriteM $end
    $var wire  1 A ResultSrcE $end
    $var wire  1 B ResultSrcM $end
    $var wire 32 ' ResultW [31:0] $end
    $var wire 32 Z Result_wire [31:0] $end
    $var wire 32 W SrcAE_wire [31:0] $end
    $var wire 32 Y SrcBE_Forwarding_wire [31:0] $end
    $var wire 32 X SrcBE_wire [31:0] $end
    $var wire 32 * WriteDataM [31:0] $end
    $var wire  1 '! clk $end
    $scope module ALU $end
     $var wire  4 - ALUControl [3:0] $end
     $var wire 32 Z ALUResult [31:0] $end
     $var wire 32 .! DATA_WIDTH [31:0] $end
     $var wire 32 W SrcA [31:0] $end
     $var wire 32 X SrcB [31:0] $end
    $upscope $end
    $scope module Pipeline_RegisterE $end
     $var wire 32 Z ALUResultE [31:0] $end
     $var wire 32 % ALUResultM [31:0] $end
     $var wire  1 5 MemWriteE $end
     $var wire  1 6 MemWriteM $end
     $var wire  5 < RdE [4:0] $end
     $var wire  5 = RdM [4:0] $end
     $var wire  1 . RegWriteE $end
     $var wire  1 / RegWriteM $end
     $var wire  1 A ResultSrcE $end
     $var wire  1 B ResultSrcM $end
     $var wire 32 Y WriteDataE [31:0] $end
     $var wire 32 * WriteDataM [31:0] $end
     $var wire  1 '! clk $end
    $upscope $end
   $upscope $end
   $scope module Fetch_Stage $end
    $var wire 32 # InstrD [31:0] $end
    $var wire 32 _ InstrF_wire [31:0] $end
    $var wire 32 *! PCBranchD [31:0] $end
    $var wire 32 ] PCF_wire [31:0] $end
    $var wire 32 +! PCNext_wire [31:0] $end
    $var wire 32 ) PCPlus4D [31:0] $end
    $var wire 32 ^ PCPlus4F_wire [31:0] $end
    $var wire  1 "! PCSrcD $end
    $var wire  1 2 StallD $end
    $var wire  1 1 StallF $end
    $var wire  1 '! clk $end
    $var wire  1 (! reset $end
    $scope module Instruction_Memory $end
     $var wire 32 .! ADDRESS_WIDTH [31:0] $end
     $var wire 32 /! DATA_WIDTH [31:0] $end
     $var wire 32 ] addr [31:0] $end
     $var wire 32 _ dout [31:0] $end
    $upscope $end
    $scope module Pipeline_RegisterF $end
     $var wire  1 "! Flush $end
     $var wire 32 # InstrD [31:0] $end
     $var wire 32 _ InstrF [31:0] $end
     $var wire 32 ) PCPlus4D [31:0] $end
     $var wire 32 ^ PCPlus4F [31:0] $end
     $var wire  1 2 Stall $end
     $var wire  1 '! clk $end
    $upscope $end
    $scope module ProgramCounter $end
     $var wire 32 ] PC [31:0] $end
     $var wire 32 +! PCNext [31:0] $end
     $var wire  1 1 Stall $end
     $var wire 32 .! WIDTH [31:0] $end
     $var wire  1 '! clk $end
     $var wire  1 (! rst $end
    $upscope $end
   $upscope $end
   $scope module HazardUnit $end
    $var wire  1 D BranchD $end
    $var wire  1 [ BranchStall $end
    $var wire  1 -! FlushE $end
    $var wire  1 7 ForwardAD $end
    $var wire  2 3 ForwardAE [1:0] $end
    $var wire  1 8 ForwardBD $end
    $var wire  2 4 ForwardBE [1:0] $end
    $var wire  5 = RdM [4:0] $end
    $var wire  5 > RdW [4:0] $end
    $var wire  1 . RegWriteE $end
    $var wire  1 / RegWriteM $end
    $var wire  1 0 RegWriteW $end
    $var wire  1 A ResultSrcE $end
    $var wire  1 B ResultSrcM $end
    $var wire  5 ? Rs1D [4:0] $end
    $var wire  5 : Rs1E [4:0] $end
    $var wire  5 @ Rs2D [4:0] $end
    $var wire  5 ; Rs2E [4:0] $end
    $var wire  1 2 StallD $end
    $var wire  1 1 StallF $end
    $var wire  5 < WriteRegE [4:0] $end
    $var wire  1 \ lwstall $end
   $upscope $end
   $scope module Memory_Stage $end
    $var wire 32 % ALUResultM [31:0] $end
    $var wire 32 & ALUResultW [31:0] $end
    $var wire  1 6 MemWriteM $end
    $var wire 32 ,! RD_wire [31:0] $end
    $var wire  5 = RdM [4:0] $end
    $var wire  5 > RdW [4:0] $end
    $var wire 32 ( ReadDataW [31:0] $end
    $var wire  1 / RegWriteM $end
    $var wire  1 0 RegWriteW $end
    $var wire  1 B ResultSrcM $end
    $var wire  1 C ResultSrcW $end
    $var wire 32 * WriteDataM [31:0] $end
    $var wire  1 '! clk $end
    $scope module Memory $end
     $var wire 32 % A [31:0] $end
     $var wire 32 /! DATA_WIDTH [31:0] $end
     $var wire 32 ,! RD [31:0] $end
     $var wire 32 * WD [31:0] $end
     $var wire  1 6 WE $end
     $var wire 32 .! WIDTH [31:0] $end
     $var wire  1 '! clk $end
    $upscope $end
    $scope module Pipeline_RegisterM $end
     $var wire 32 % ALUResultM [31:0] $end
     $var wire 32 & ALUResultW [31:0] $end
     $var wire  5 = RdM [4:0] $end
     $var wire  5 > RdW [4:0] $end
     $var wire 32 ,! ReadDataM [31:0] $end
     $var wire 32 ( ReadDataW [31:0] $end
     $var wire  1 / RegWriteM $end
     $var wire  1 0 RegWriteW $end
     $var wire  1 B ResultSrcM $end
     $var wire  1 C ResultSrcW $end
     $var wire  1 '! clk $end
    $upscope $end
   $upscope $end
   $scope module WriteBack_Stage $end
    $var wire 32 & ALUResultW [31:0] $end
    $var wire 32 ( ReadDataW [31:0] $end
    $var wire  1 C ResultSrcW $end
    $var wire 32 ' ResultW [31:0] $end
   $upscope $end
  $upscope $end
 $upscope $end
$enddefinitions $end


#0
b00000000000000000000000000000000 #
b00000000000000000000000000000000 $
b00000000000000000000000000000000 %
b00000000000000000000000000000000 &
b00000000000000000000000000000000 '
b00000000000000000000000000000000 (
b00000000000000000000000000000000 )
b00000000000000000000000000000000 *
b00000000000000000000000000000000 +
b00000000000000000000000000000000 ,
b0000 -
0.
0/
00
01
02
b00 3
b00 4
05
06
07
08
09
b00000 :
b00000 ;
b00000 <
b00000 =
b00000 >
b00000 ?
b00000 @
0A
0B
0C
0D
0E
b0000 F
0G
b000 H
0I
0J
0K
0L
0M
0N
b00000000000000000000000000000000 O
b00000000000000000000000000000000 P
b0000000 Q
b000 R
0S
b0000000 T
b0000000000000000000000000 U
b00000 V
b00000000000000000000000000000000 W
b00000000000000000000000000000000 X
b00000000000000000000000000000000 Y
b00000000000000000000000000000000 Z
0[
0\
b00000000000000000000000000000000 ]
b00000000000000000000000000000100 ^
b00000000000000000000000000000000 _
b00000000000000000000000000000000 `
b00000000000000000000000000000000 a
b00000000000000000000000000000000 b
b00000000000000000000000000000000 c
b00000000000000000000000000000000 d
b00000000000000000000000000000000 e
b00000000000000000000000000000000 f
b00000000000000000000000000000000 g
b00000000000000000000000000000000 h
b00000000000000000000000000000000 i
b00000000000000000000000000000000 j
b00000000000000000000000000000000 k
b00000000000000000000000000000000 l
b00000000000000000000000000000000 m
b00000000000000000000000000000000 n
b00000000000000000000000000000000 o
b00000000000000000000000000000000 p
b00000000000000000000000000000000 q
b00000000000000000000000000000000 r
b00000000000000000000000000000000 s
b00000000000000000000000000000000 t
b00000000000000000000000000000000 u
b00000000000000000000000000000000 v
b00000000000000000000000000000000 w
b00000000000000000000000000000000 x
b00000000000000000000000000000000 y
b00000000000000000000000000000000 z
b00000000000000000000000000000000 {
b00000000000000000000000000000000 |
b00000000000000000000000000000000 }
b00000000000000000000000000000000 ~
b00000000000000000000000000000000 !!
0"!
b00000000000000000000000000000000 #!
b00000000000000000000000000000000 $!
b00000000000000000000000000000000 %!
b00000000000000000000000000000000 &!
0'!
0(!
b00000000000000000000000000000000 )!
b11111111111111111111111111111000 *!
b00000000000000000000000000000100 +!
b00000000000000000000000000000000 ,!
0-!
b00000000000000000000000000100000 .!
b00000000000000000000000000001000 /!
00!
b00000000000000000000000000000101 1!
#1
1'!
#2
b00000000000000000000000000000100 )
0'!
b11111111111111111111111111111100 *!
#3
b00000000000000000000000000000100 ]
b00000000000000000000000000001000 ^
b00001111111100000000001100010011 _
1'!
b00000000000000000000000000001000 +!
#4
b00001111111100000000001100010011 #
b00000000000000000000000000001000 )
b11111 @
1E
1G
b00000000000000000000000011111111 O
b00000000000000000000000011111111 P
b0010011 Q
b0010011 T
b0000111111110000000000110 U
b00110 V
0'!
b00000000000000000000000011111111 *!
#5
b00000000000000000000000000001000 ]
b00000000000000000000000000001100 ^
b00000000000100000000001110010011 _
1'!
b00000000000000000000000000001100 +!
#6
b00000000000100000000001110010011 #
b00000000000000000000000011111111 $
b00000000000000000000000000001100 )
1.
19
b11111 ;
b00110 <
b00001 @
b00000000000000000000000000000001 O
b00000000000000000000000000000001 P
b0000000000010000000000111 U
b00111 V
b00000000000000000000000011111111 X
b00000000000000000000000011111111 Z
0'!
b00000000000000000000000000000101 *!
#7
b00000000000000000000000000001100 ]
b00000000000000000000000000010000 ^
b00000000000000000000010100010011 _
1'!
b00000000000000000000000000010000 +!
#8
b00000000000000000000010100010011 #
b00000000000000000000000000000001 $
b00000000000000000000000011111111 %
b00000000000000000000000000010000 )
1/
b00001 ;
b00111 <
b00110 =
b00000 @
b00000000000000000000000000000000 O
b00000000000000000000000000000000 P
b0000000000000000000001010 U
b01010 V
b00000000000000000000000000000001 X
b00000000000000000000000000000001 Z
0'!
b00000000000000000000000000001000 *!
#9
b00000000000000000000000000010000 ]
b00000000000000000000000000010100 ^
b00000000100000000000011000010011 _
1'!
b00000000000000000000000000010100 +!
#10
b00000000100000000000011000010011 #
b00000000000000000000000000000000 $
b00000000000000000000000000000001 %
b00000000000000000000000011111111 &
b00000000000000000000000011111111 '
b00000000000000000000000000010100 )
10
b00000 ;
b01010 <
b00111 =
b00110 >
b01000 @
b00000000000000000000000000001000 O
b00000000000000000000000000001000 P
b0000000010000000000001100 U
b01100 V
b00000000000000000000000000000000 X
b00000000000000000000000000000000 Z
0'!
b00000000000000000000000000010100 *!
#11
b00000000000000000000000000010100 ]
b00000000000000000000000000011000 ^
b00000000000000000000010110010011 _
b00000000000000000000000011111111 f
1'!
b00000000000000000000000000011000 +!
#12
b00000000000000000000010110010011 #
b00000000000000000000000000001000 $
b00000000000000000000000000000000 %
b00000000000000000000000000000001 &
b00000000000000000000000000000001 '
b00000000000000000000000000011000 )
b01000 ;
b01100 <
b01010 =
b00111 >
b00000 @
b00000000000000000000000000000000 O
b00000000000000000000000000000000 P
b0000000000000000000001011 U
b01011 V
b00000000000000000000000000001000 X
b00000000000000000000000000001000 Z
0'!
b00000000000000000000000000010000 *!
#13
b00000000000000000000000000011000 ]
b00000000000000000000000000011100 ^
b00000000000001011000010100010011 _
b00000000000000000000000000000001 g
1'!
b00000000000000000000000000011100 +!
#14
b00000000000001011000010100010011 #
b00000000000000000000000000000000 $
b00000000000000000000000000001000 %
b00000000000000000000000000000000 &
b00000000000000000000000000000000 '
b00000000000000000000000000011100 )
b00000 ;
b01011 <
b01100 =
b01010 >
b01011 ?
b0000000000000101100001010 U
b01010 V
b00000000000000000000000000000000 X
b00000000000000000000000000000000 Z
0'!
b00000000000000000000000000010100 *!
#15
b00000000000000000000000000011100 ]
b00000000000000000000000000100000 ^
b00000001000000000000000011101111 _
1'!
b00000000000000000000000000100000 +!
#16
b00000001000000000000000011101111 #
b00000000000000000000000000000000 %
b00000000000000000000000000001000 &
b00000000000000000000000000001000 '
b00000000000000000000000000100000 )
b10 3
b01011 :
b01010 <
b01011 =
b01100 >
b00000 ?
b10000 @
b0010 F
b100 H
1K
b00000000000000000000000000010000 O
b00000000000000000000000000011100 P
b1101111 Q
b1101111 T
b0000000100000000000000001 U
b00001 V
1"!
0'!
b00000000000000000000000000101000 *!
b00000000000000000000000000101000 +!
#17
b00000000000000000000000000101000 ]
b00000000000000000000000000101100 ^
b11111110000000110001101011100011 _
b00000000000000000000000000001000 l
1'!
#18
b00000000000000000000000000000000 #
b00000000000000000000000000011100 $
b00000000000000000000000000000000 &
b00000000000000000000000000000000 '
b00000000000000000000000000000000 )
b0010 -
b00 3
b00000 :
b10000 ;
b00001 <
b01010 =
b01011 >
b00000 @
0E
b0000 F
0G
b000 H
0K
b00000000000000000000000000000000 O
b00000000000000000000000000000000 P
b0000000 Q
b0000000 T
b0000000000000000000000000 U
b00000 V
b00000000000000000000000000011100 X
b00000000000000000000000000011100 Z
0"!
0'!
b11111111111111111111111111111000 *!
b00000000000000000000000000101100 +!
#19
b00000000000000000000000000101100 ]
b00000000000000000000000000110000 ^
b00000000000101011001010110010011 _
1'!
b00000000000000000000000000110000 +!
#20
b00000000000101011001010110010011 #
b00000000000000000000000000000000 $
b00000000000000000000000000011100 %
b00000000000000000000000000110000 )
b0000 -
0.
18
09
b00000 ;
b00000 <
b00001 =
b01010 >
b01011 ?
b00001 @
1E
b0111 F
1G
b00000000000000000000000000000001 O
b00000000000000000000000000000001 P
b0010011 Q
b001 R
b0010011 T
b0000000000010101100101011 U
b01011 V
b00000000000000000000000000000000 X
b00000000000000000000000000000000 Z
b00000000000000000000000000011100 &!
0'!
b00000000000000000000000000101001 *!
#21
b00000000000000000000000000110000 ]
b00000000000000000000000000110100 ^
b00000000000101011000010110010011 _
1'!
b00000000000000000000000000110100 +!
#22
b00000000000101011000010110010011 #
b00000000000000000000000000000001 $
b00000000000000000000000000000000 %
b00000000000000000000000000011100 &
b00000000000000000000000000011100 '
b00000000000000000000000000110100 )
b0111 -
1.
0/
b01 4
08
19
b01011 :
b00001 ;
b01011 <
b00000 =
b00001 >
b0000 F
b000 R
b0000000000010101100001011 U
b00000000000000000000000000000001 X
b00000000000000000000000000011100 Y
b00000000000000000000000000000000 &!
0'!
b00000000000000000000000000101101 *!
#23
b00000000000000000000000000110100 ]
b00000000000000000000000000111000 ^
b00000000000100000000111000010011 _
b00000000000000000000000000011100 a
b00000000000000000000000000011100 $!
b00000000000000000000000000011100 &!
1'!
b00000000000000000000000000111000 +!
#24
b00000000000100000000111000010011 #
b00000000000000000000000000000000 &
b00000000000000000000000000000000 '
b00000000000000000000000000111000 )
b00000000000000000000000000011100 *
b00000000000000000000000000011100 ,
b0000 -
1/
00
b10 3
b00 4
b01011 =
b00000 >
b00000 ?
b0000000000010000000011100 U
b11100 V
b00000000000000000000000000000001 Z
0'!
b00000000000000000000000000110001 *!
#25
b00000000000000000000000000111000 ]
b00000000000000000000000000111100 ^
b01000000011111100000111000110011 _
1'!
b00000000000000000000000000111100 +!
#26
b01000000011111100000111000110011 #
b00000000000000000000000000000001 %
b00000000000000000000000000111100 )
10
b00 3
b00000 :
b11100 <
b01011 >
b11100 ?
b00111 @
b1000 F
0G
b00000000000000000000010000000111 O
b00000000000000000000010000000111 P
b0110011 Q
1S
b0110011 T
b0100000001111110000011100 U
b00000000000000000000000000000001 $!
b00000000000000000000000000000001 &!
0'!
b00000000000000000000010000111011 *!
#27
b00000000000000000000000000111100 ]
b00000000000000000000000001000000 ^
b11111110000011100001111011100011 _
1'!
b00000000000000000000000001000000 +!
#28
b11111110000011100001111011100011 #
b00000000000000000000010000000111 $
b00000000000000000000000000000001 &
b00000000000000000000000000000001 '
b00000000000000000000000001000000 )
b00000000000000000000000000000001 ,
b1000 -
b10 3
17
09
b11100 :
b00111 ;
b11100 =
b00000 @
1D
0E
b0001 F
b011 H
1N
b11111111111111111111111111111100 O
b11111111111111111111111111111100 P
b1100011 Q
b001 R
b1100011 T
b1111111000001110000111101 U
b11101 V
b00000000000000000000000000000001 W
b00000000000000000000000000000001 Y
b00000000000000000000000000000000 Z
1[
1"!
b00000000000000000000000000000000 $!
b00000000000000000000000000000001 %!
b00000000000000000000000000000000 &!
0'!
b00000000000000000000000000110100 *!
b00000000000000000000000000110100 +!
#29
b00000000000000000000000000110100 ]
b00000000000000000000000000111000 ^
b00000000000100000000111000010011 _
b00000000000000000000000000000001 k
1'!
#30
b00000000000000000000000000000000 #
b11111111111111111111111111111100 $
b00000000000000000000000000000000 %
b00000000000000000000000000000000 )
b00000000000000000000000000000001 *
b00000000000000000000000000000000 ,
b0001 -
0.
07
b00000 ;
b11101 <
b11100 >
b00000 ?
0D
b0000 F
b000 H
0N
b00000000000000000000000000000000 O
b00000000000000000000000000000000 P
b0000000 Q
b000 R
0S
b0000000 T
b0000000000000000000000000 U
b00000 V
b00000000000000000000000000000000 W
b00000000000000000000000000000000 X
b00000000000000000000000000000000 Y
0[
0"!
b00000000000000000000000000000000 %!
0'!
b11111111111111111111111111111000 *!
b00000000000000000000000000111000 +!
#31
b00000000000000000000000000111000 ]
b00000000000000000000000000111100 ^
b01000000011111100000111000110011 _
b00000000000000000000000000000001 |
1'!
b00000000000000000000000000111100 +!
#32
b01000000011111100000111000110011 #
b00000000000000000000000000000000 $
b00000000000000000000000000000000 &
b00000000000000000000000000000000 '
b00000000000000000000000000111100 )
b00000000000000000000000000000000 *
b0000 -
0/
b00 3
b00000 :
b00000 <
b11101 =
b11100 ?
b00111 @
1E
b1000 F
b00000000000000000000010000000111 O
b00000000000000000000010000000111 P
b0110011 Q
1S
b0110011 T
b0100000001111110000011100 U
b11100 V
b00000000000000000000000000000001 #!
b00000000000000000000000000000001 $!
b00000000000000000000000000000001 %!
b00000000000000000000000000000001 &!
0'!
b00000000000000000000010000111011 *!
#33
b00000000000000000000000000111100 ]
b00000000000000000000000001000000 ^
b11111110000011100001111011100011 _
b00000000000000000000000000000000 |
b00000000000000000000000000000000 #!
b00000000000000000000000000000000 %!
1'!
b00000000000000000000000001000000 +!
#34
b11111110000011100001111011100011 #
b00000000000000000000010000000111 $
b00000000000000000000000001000000 )
b00000000000000000000000000000001 ,
b1000 -
1.
00
b11100 :
b00111 ;
b11100 <
b00000 =
b11101 >
b00000 @
1D
0E
b0001 F
b011 H
1N
b11111111111111111111111111111100 O
b11111111111111111111111111111100 P
b1100011 Q
b001 R
b1100011 T
b1111111000001110000111101 U
b11101 V
b00000000000000000000000000000001 X
b00000000000000000000000000000001 Y
b11111111111111111111111111111111 Z
1[
b00000000000000000000000000000000 $!
b00000000000000000000000000000000 &!
0'!
b00000000000000000000000000110100 *!
#35
b00000000000000000000000001000000 ]
b00000000000000000000000001000100 ^
b00000000000000001000000001100111 _
1'!
b00000000000000000000000001000100 +!
#36
b00000000000000001000000001100111 #
b11111111111111111111111111111100 $
b11111111111111111111111111111111 %
b00000000000000000000000001000100 )
b00000000000000000000000000000001 *
b00000000000000000000000000000000 ,
b0001 -
0.
1/
b10 3
b00000 ;
b11101 <
b11100 =
b00000 >
b00001 ?
0D
1E
b0011 F
1G
b100 H
1L
0N
b00000000000000001000000000000000 O
b00000000000000001000000000000000 P
b1100111 Q
b000 R
0S
b1100111 T
b0000000000000000100000000 U
b00000 V
b11111111111111111111111111111111 W
b00000000000000000000000000000000 X
b00000000000000000000000000000000 Y
b00000000000000000000000000000001 Z
0[
1"!
b00000000000000000000000000011100 #!
b00000000000000000000000000011100 %!
0'!
b00000000000000000000000000011100 *!
b00000000000000000000000000011100 +!
#37
b00000000000000000000000000011100 ]
b00000000000000000000000000100000 ^
b00000001000000000000000011101111 _
1'!
#38
b00000000000000000000000000000000 #
b00000000000000001000000000000000 $
b00000000000000000000000000000001 %
b11111111111111111111111111111111 &
b11111111111111111111111111111111 '
b00000000000000000000000000000000 )
b00000000000000000000000000000000 *
b00000000000000000000000000011100 +
b0011 -
1.
0/
10
b00 3
19
b00001 :
b00000 <
b11101 =
b11100 >
b00000 ?
0E
b0000 F
0G
b000 H
0L
b00000000000000000000000000000000 O
b00000000000000000000000000000000 P
b0000000 Q
b0000000 T
b0000000000000000000000000 U
b00000000000000000000000000011100 W
b00000000000000001000000000000000 X
b00000000000000001000000000011100 Z
0"!
b00000000000000000000000000000000 #!
b00000000000000000000000000000000 %!
0'!
b11111111111111111111111111111000 *!
b00000000000000000000000000100000 +!
#39
b00000000000000000000000000100000 ]
b00000000000000000000000000100100 ^
b00000000000001011000010100010011 _
b11111111111111111111111111111111 |
1'!
b00000000000000000000000000100100 +!
#40
b00000000000001011000010100010011 #
b00000000000000000000000000000000 $
b00000000000000001000000000011100 %
b00000000000000000000000000000001 &
b00000000000000000000000000000001 '
b00000000000000000000000000100100 )
b00000000000000000000000000000000 +
b0000 -
0.
1/
00
b10 3
b10 4
09
b00000 :
b00000 =
b11101 >
b01011 ?
1E
1G
b0010011 Q
b0010011 T
b0000000000000101100001010 U
b01010 V
b00000000000000001000000000011100 W
b00000000000000001000000000011100 X
b00000000000000001000000000011100 Y
b00000000000000010000000000111000 Z
b00000000000000000000000000000001 #!
b00000000000000000000000000000001 %!
0'!
b00000000000000000000000000011100 *!
#41
b00000000000000000000000000100100 ]
b00000000000000000000000000101000 ^
b00000010011001011000001001100011 _
1'!
b00000000000000000000000000101000 +!
#42
b00000010011001011000001001100011 #
b00000000000000010000000000111000 %
b00000000000000001000000000011100 &
b00000000000000001000000000011100 '
b00000000000000000000000000101000 )
b00000000000000001000000000011100 *
b00000000000000000000000000000001 +
1.
0/
10
b00 3
b01 4
19
b01011 :
b01010 <
b00000 >
b00110 @
1D
0E
b1101 F
0G
b011 H
1M
b00000000000000000000000000100100 O
b00000000000000000000000000100100 P
b1100011 Q
b1100011 T
b0000001001100101100000100 U
b00100 V
b00000000000000000000000000000001 W
b00000000000000000000000000000000 X
b00000000000000000000000000000001 Z
b00000000000000000000000011111111 $!
b00000000000000000000000011111111 &!
0'!
b00000000000000000000000001000100 *!
#43
b00000000000000000000000000101000 ]
b00000000000000000000000000101100 ^
b11111110000000110001101011100011 _
1'!
b00000000000000000000000000101100 +!
